^C:\USERS\OPATOVSKY\DOCUMENTS\VISUAL STUDIO 2015\PROJECTS\POLYDATA\POLYDATA\GENERATEDFILES\QRC_POLYDATA.CPP
C:\WINDOWS\GLOBALIZATION\SORTING\SORTDEFAULT.NLS
C:\PROGRAM FILES (X86)\MICROSOFT VISUAL STUDIO 14.0\VC\BIN\X86_AMD64\1033\CLUI.DLL
C:\WINDOWS\SYSTEM32\RSAENH.DLL
C:\WINDOWS\SYSTEM32\TZRES.DLL
^C:\USERS\OPATOVSKY\DOCUMENTS\VISUAL STUDIO 2015\PROJECTS\POLYDATA\POLYDATA\GENERATEDFILES\RELEASE\MOC_POLYDATA.CPP
C:\USERS\OPATOVSKY\DOCUMENTS\VISUAL STUDIO 2015\PROJECTS\POLYDATA\POLYDATA\POLYDATA.H
C:\QT\QT5.9.2\5.9.2\MSVC2017_64\INCLUDE\QTWIDGETS\QMAINWINDOW
C:\QT\QT5.9.2\5.9.2\MSVC2017_64\INCLUDE\QTWIDGETS\QMAINWINDOW.H
C:\QT\QT5.9.2\5.9.2\MSVC2017_64\INCLUDE\QTWIDGETS\QTWIDGETSGLOBAL.H
C:\QT\QT5.9.2\5.9.2\MSVC2017_64\INCLUDE\QTGUI\QTGUIGLOBAL.H
C:\QT\QT5.9.2\5.9.2\MSVC2017_64\INCLUDE\QTCORE\QGLOBAL.H
C:\PROGRAM FILES (X86)\MICROSOFT VISUAL STUDIO 14.0\VC\INCLUDE\TYPE_TRAITS
C:\PROGRAM FILES (X86)\MICROSOFT VISUAL STUDIO 14.0\VC\INCLUDE\XSTDDEF
C:\PROGRAM FILES (X86)\MICROSOFT VISUAL STUDIO 14.0\VC\INCLUDE\CSTDDEF
C:\PROGRAM FILES (X86)\MICROSOFT VISUAL STUDIO 14.0\VC\INCLUDE\YVALS.H
C:\PROGRAM FILES (X86)\MICROSOFT VISUAL STUDIO 14.0\VC\INCLUDE\XKEYCHECK.H
C:\PROGRAM FILES (X86)\MICROSOFT VISUAL STUDIO 14.0\VC\INCLUDE\CRTDEFS.H
C:\PROGRAM FILES (X86)\MICROSOFT VISUAL STUDIO 14.0\VC\INCLUDE\VCRUNTIME.H
C:\PROGRAM FILES (X86)\MICROSOFT VISUAL STUDIO 14.0\VC\INCLUDE\SAL.H
C:\PROGRAM FILES (X86)\MICROSOFT VISUAL STUDIO 14.0\VC\INCLUDE\CONCURRENCYSAL.H
C:\PROGRAM FILES (X86)\MICROSOFT VISUAL STUDIO 14.0\VC\INCLUDE\VADEFS.H
C:\PROGRAM FILES (X86)\WINDOWS KITS\10\INCLUDE\10.0.10240.0\UCRT\CORECRT.H
C:\PROGRAM FILES (X86)\MICROSOFT VISUAL STUDIO 14.0\VC\INCLUDE\USE_ANSI.H
C:\PROGRAM FILES (X86)\WINDOWS KITS\10\INCLUDE\10.0.10240.0\UCRT\STDDEF.H
C:\PROGRAM FILES (X86)\MICROSOFT VISUAL STUDIO 14.0\VC\INCLUDE\CSTDLIB
C:\PROGRAM FILES (X86)\WINDOWS KITS\10\INCLUDE\10.0.10240.0\UCRT\STDLIB.H
C:\PROGRAM FILES (X86)\WINDOWS KITS\10\INCLUDE\10.0.10240.0\UCRT\CORECRT_MALLOC.H
C:\PROGRAM FILES (X86)\WINDOWS KITS\10\INCLUDE\10.0.10240.0\UCRT\CORECRT_SEARCH.H
C:\PROGRAM FILES (X86)\WINDOWS KITS\10\INCLUDE\10.0.10240.0\UCRT\CORECRT_WSTDLIB.H
C:\PROGRAM FILES (X86)\MICROSOFT VISUAL STUDIO 14.0\VC\INCLUDE\LIMITS.H
C:\PROGRAM FILES (X86)\MICROSOFT VISUAL STUDIO 14.0\VC\INCLUDE\INITIALIZER_LIST
C:\PROGRAM FILES (X86)\MICROSOFT VISUAL STUDIO 14.0\VC\INCLUDE\XTR1COMMON
C:\PROGRAM FILES (X86)\MICROSOFT VISUAL STUDIO 14.0\VC\INCLUDE\UTILITY
C:\PROGRAM FILES (X86)\MICROSOFT VISUAL STUDIO 14.0\VC\INCLUDE\IOSFWD
C:\PROGRAM FILES (X86)\MICROSOFT VISUAL STUDIO 14.0\VC\INCLUDE\CSTDIO
C:\PROGRAM FILES (X86)\WINDOWS KITS\10\INCLUDE\10.0.10240.0\UCRT\STDIO.H
C:\PROGRAM FILES (X86)\WINDOWS KITS\10\INCLUDE\10.0.10240.0\UCRT\CORECRT_WSTDIO.H
C:\PROGRAM FILES (X86)\WINDOWS KITS\10\INCLUDE\10.0.10240.0\UCRT\CORECRT_STDIO_CONFIG.H
C:\PROGRAM FILES (X86)\MICROSOFT VISUAL STUDIO 14.0\VC\INCLUDE\CSTRING
C:\PROGRAM FILES (X86)\WINDOWS KITS\10\INCLUDE\10.0.10240.0\UCRT\STRING.H
C:\PROGRAM FILES (X86)\WINDOWS KITS\10\INCLUDE\10.0.10240.0\UCRT\CORECRT_MEMORY.H
C:\PROGRAM FILES (X86)\WINDOWS KITS\10\INCLUDE\10.0.10240.0\UCRT\CORECRT_MEMCPY_S.H
C:\PROGRAM FILES (X86)\WINDOWS KITS\10\INCLUDE\10.0.10240.0\UCRT\ERRNO.H
C:\PROGRAM FILES (X86)\MICROSOFT VISUAL STUDIO 14.0\VC\INCLUDE\VCRUNTIME_STRING.H
C:\PROGRAM FILES (X86)\WINDOWS KITS\10\INCLUDE\10.0.10240.0\UCRT\CORECRT_WSTRING.H
C:\PROGRAM FILES (X86)\MICROSOFT VISUAL STUDIO 14.0\VC\INCLUDE\CWCHAR
C:\PROGRAM FILES (X86)\WINDOWS KITS\10\INCLUDE\10.0.10240.0\UCRT\WCHAR.H
C:\PROGRAM FILES (X86)\WINDOWS KITS\10\INCLUDE\10.0.10240.0\UCRT\CORECRT_WCONIO.H
C:\PROGRAM FILES (X86)\WINDOWS KITS\10\INCLUDE\10.0.10240.0\UCRT\CORECRT_WCTYPE.H
C:\PROGRAM FILES (X86)\WINDOWS KITS\10\INCLUDE\10.0.10240.0\UCRT\CORECRT_WDIRECT.H
C:\PROGRAM FILES (X86)\WINDOWS KITS\10\INCLUDE\10.0.10240.0\UCRT\CORECRT_WIO.H
C:\PROGRAM FILES (X86)\WINDOWS KITS\10\INCLUDE\10.0.10240.0\UCRT\CORECRT_SHARE.H
C:\PROGRAM FILES (X86)\WINDOWS KITS\10\INCLUDE\10.0.10240.0\UCRT\CORECRT_WPROCESS.H
C:\PROGRAM FILES (X86)\WINDOWS KITS\10\INCLUDE\10.0.10240.0\UCRT\CORECRT_WTIME.H
C:\PROGRAM FILES (X86)\WINDOWS KITS\10\INCLUDE\10.0.10240.0\UCRT\SYS\STAT.H
C:\PROGRAM FILES (X86)\WINDOWS KITS\10\INCLUDE\10.0.10240.0\UCRT\SYS\TYPES.H
C:\PROGRAM FILES (X86)\WINDOWS KITS\10\INCLUDE\10.0.10240.0\UCRT\CRTDBG.H
C:\PROGRAM FILES (X86)\MICROSOFT VISUAL STUDIO 14.0\VC\INCLUDE\VCRUNTIME_NEW_DEBUG.H
C:\PROGRAM FILES (X86)\MICROSOFT VISUAL STUDIO 14.0\VC\INCLUDE\VCRUNTIME_NEW.H
C:\QT\QT5.9.2\5.9.2\MSVC2017_64\INCLUDE\QTCORE\QCONFIG.H
C:\QT\QT5.9.2\5.9.2\MSVC2017_64\INCLUDE\QTCORE\QTCORE-CONFIG.H
C:\QT\QT5.9.2\5.9.2\MSVC2017_64\INCLUDE\QTCORE\QSYSTEMDETECTION.H
C:\QT\QT5.9.2\5.9.2\MSVC2017_64\INCLUDE\QTCORE\QPROCESSORDETECTION.H
C:\QT\QT5.9.2\5.9.2\MSVC2017_64\INCLUDE\QTCORE\QCOMPILERDETECTION.H
C:\PROGRAM FILES (X86)\MICROSOFT VISUAL STUDIO 14.0\VC\INCLUDE\ALGORITHM
C:\PROGRAM FILES (X86)\MICROSOFT VISUAL STUDIO 14.0\VC\INCLUDE\XMEMORY
C:\PROGRAM FILES (X86)\MICROSOFT VISUAL STUDIO 14.0\VC\INCLUDE\XMEMORY0
C:\PROGRAM FILES (X86)\MICROSOFT VISUAL STUDIO 14.0\VC\INCLUDE\CSTDINT
C:\PROGRAM FILES (X86)\MICROSOFT VISUAL STUDIO 14.0\VC\INCLUDE\STDINT.H
C:\PROGRAM FILES (X86)\MICROSOFT VISUAL STUDIO 14.0\VC\INCLUDE\LIMITS
C:\PROGRAM FILES (X86)\MICROSOFT VISUAL STUDIO 14.0\VC\INCLUDE\YMATH.H
C:\PROGRAM FILES (X86)\MICROSOFT VISUAL STUDIO 14.0\VC\INCLUDE\CFLOAT
C:\PROGRAM FILES (X86)\WINDOWS KITS\10\INCLUDE\10.0.10240.0\UCRT\FLOAT.H
C:\PROGRAM FILES (X86)\MICROSOFT VISUAL STUDIO 14.0\VC\INCLUDE\CLIMITS
C:\PROGRAM FILES (X86)\MICROSOFT VISUAL STUDIO 14.0\VC\INCLUDE\CMATH
C:\PROGRAM FILES (X86)\WINDOWS KITS\10\INCLUDE\10.0.10240.0\UCRT\MATH.H
C:\PROGRAM FILES (X86)\MICROSOFT VISUAL STUDIO 14.0\VC\INCLUDE\XTGMATH.H
C:\PROGRAM FILES (X86)\MICROSOFT VISUAL STUDIO 14.0\VC\INCLUDE\NEW
C:\PROGRAM FILES (X86)\MICROSOFT VISUAL STUDIO 14.0\VC\INCLUDE\EXCEPTION
C:\PROGRAM FILES (X86)\WINDOWS KITS\10\INCLUDE\10.0.10240.0\UCRT\MALLOC.H
C:\PROGRAM FILES (X86)\MICROSOFT VISUAL STUDIO 14.0\VC\INCLUDE\VCRUNTIME_EXCEPTION.H
C:\PROGRAM FILES (X86)\MICROSOFT VISUAL STUDIO 14.0\VC\INCLUDE\EH.H
C:\PROGRAM FILES (X86)\WINDOWS KITS\10\INCLUDE\10.0.10240.0\UCRT\CORECRT_TERMINATE.H
C:\PROGRAM FILES (X86)\MICROSOFT VISUAL STUDIO 14.0\VC\INCLUDE\XUTILITY
C:\PROGRAM FILES (X86)\MICROSOFT VISUAL STUDIO 14.0\VC\INCLUDE\XATOMIC0.H
C:\PROGRAM FILES (X86)\MICROSOFT VISUAL STUDIO 14.0\VC\INCLUDE\INTRIN.H
C:\PROGRAM FILES (X86)\MICROSOFT VISUAL STUDIO 14.0\VC\INCLUDE\SETJMP.H
C:\PROGRAM FILES (X86)\MICROSOFT VISUAL STUDIO 14.0\VC\INCLUDE\IMMINTRIN.H
C:\PROGRAM FILES (X86)\MICROSOFT VISUAL STUDIO 14.0\VC\INCLUDE\WMMINTRIN.H
C:\PROGRAM FILES (X86)\MICROSOFT VISUAL STUDIO 14.0\VC\INCLUDE\NMMINTRIN.H
C:\PROGRAM FILES (X86)\MICROSOFT VISUAL STUDIO 14.0\VC\INCLUDE\SMMINTRIN.H
C:\PROGRAM FILES (X86)\MICROSOFT VISUAL STUDIO 14.0\VC\INCLUDE\TMMINTRIN.H
C:\PROGRAM FILES (X86)\MICROSOFT VISUAL STUDIO 14.0\VC\INCLUDE\PMMINTRIN.H
C:\PROGRAM FILES (X86)\MICROSOFT VISUAL STUDIO 14.0\VC\INCLUDE\EMMINTRIN.H
C:\PROGRAM FILES (X86)\MICROSOFT VISUAL STUDIO 14.0\VC\INCLUDE\XMMINTRIN.H
C:\PROGRAM FILES (X86)\MICROSOFT VISUAL STUDIO 14.0\VC\INCLUDE\MMINTRIN.H
C:\PROGRAM FILES (X86)\MICROSOFT VISUAL STUDIO 14.0\VC\INCLUDE\AMMINTRIN.H
C:\QT\QT5.9.2\5.9.2\MSVC2017_64\INCLUDE\QTCORE\QTYPEINFO.H
C:\QT\QT5.9.2\5.9.2\MSVC2017_64\INCLUDE\QTCORE\QSYSINFO.H
C:\QT\QT5.9.2\5.9.2\MSVC2017_64\INCLUDE\QTCORE\QLOGGING.H
C:\QT\QT5.9.2\5.9.2\MSVC2017_64\INCLUDE\QTCORE\QFLAGS.H
C:\QT\QT5.9.2\5.9.2\MSVC2017_64\INCLUDE\QTCORE\QATOMIC.H
C:\QT\QT5.9.2\5.9.2\MSVC2017_64\INCLUDE\QTCORE\QBASICATOMIC.H
C:\QT\QT5.9.2\5.9.2\MSVC2017_64\INCLUDE\QTCORE\QATOMIC_MSVC.H
C:\QT\QT5.9.2\5.9.2\MSVC2017_64\INCLUDE\QTCORE\QGENERICATOMIC.H
C:\QT\QT5.9.2\5.9.2\MSVC2017_64\INCLUDE\QTCORE\QGLOBALSTATIC.H
C:\QT\QT5.9.2\5.9.2\MSVC2017_64\INCLUDE\QTCORE\QNUMERIC.H
C:\QT\QT5.9.2\5.9.2\MSVC2017_64\INCLUDE\QTCORE\QVERSIONTAGGING.H
C:\QT\QT5.9.2\5.9.2\MSVC2017_64\INCLUDE\QTGUI\QTGUI-CONFIG.H
C:\QT\QT5.9.2\5.9.2\MSVC2017_64\INCLUDE\QTWIDGETS\QTWIDGETS-CONFIG.H
C:\QT\QT5.9.2\5.9.2\MSVC2017_64\INCLUDE\QTWIDGETS\QWIDGET.H
C:\QT\QT5.9.2\5.9.2\MSVC2017_64\INCLUDE\QTGUI\QWINDOWDEFS.H
C:\QT\QT5.9.2\5.9.2\MSVC2017_64\INCLUDE\QTCORE\QOBJECTDEFS.H
C:\QT\QT5.9.2\5.9.2\MSVC2017_64\INCLUDE\QTCORE\QNAMESPACE.H
C:\QT\QT5.9.2\5.9.2\MSVC2017_64\INCLUDE\QTCORE\QOBJECTDEFS_IMPL.H
C:\QT\QT5.9.2\5.9.2\MSVC2017_64\INCLUDE\QTGUI\QWINDOWDEFS_WIN.H
C:\QT\QT5.9.2\5.9.2\MSVC2017_64\INCLUDE\QTCORE\QOBJECT.H
C:\QT\QT5.9.2\5.9.2\MSVC2017_64\INCLUDE\QTCORE\QSTRING.H
C:\QT\QT5.9.2\5.9.2\MSVC2017_64\INCLUDE\QTCORE\QCHAR.H
C:\QT\QT5.9.2\5.9.2\MSVC2017_64\INCLUDE\QTCORE\QBYTEARRAY.H
C:\QT\QT5.9.2\5.9.2\MSVC2017_64\INCLUDE\QTCORE\QREFCOUNT.H
C:\QT\QT5.9.2\5.9.2\MSVC2017_64\INCLUDE\QTCORE\QARRAYDATA.H
C:\PROGRAM FILES (X86)\MICROSOFT VISUAL STUDIO 14.0\VC\INCLUDE\STDARG.H
C:\PROGRAM FILES (X86)\MICROSOFT VISUAL STUDIO 14.0\VC\INCLUDE\STRING
C:\PROGRAM FILES (X86)\MICROSOFT VISUAL STUDIO 14.0\VC\INCLUDE\ISTREAM
C:\PROGRAM FILES (X86)\MICROSOFT VISUAL STUDIO 14.0\VC\INCLUDE\OSTREAM
C:\PROGRAM FILES (X86)\MICROSOFT VISUAL STUDIO 14.0\VC\INCLUDE\IOS
C:\PROGRAM FILES (X86)\MICROSOFT VISUAL STUDIO 14.0\VC\INCLUDE\XLOCNUM
C:\PROGRAM FILES (X86)\MICROSOFT VISUAL STUDIO 14.0\VC\INCLUDE\STREAMBUF
C:\PROGRAM FILES (X86)\MICROSOFT VISUAL STUDIO 14.0\VC\INCLUDE\XIOSBASE
C:\PROGRAM FILES (X86)\MICROSOFT VISUAL STUDIO 14.0\VC\INCLUDE\XLOCALE
C:\PROGRAM FILES (X86)\MICROSOFT VISUAL STUDIO 14.0\VC\INCLUDE\STDEXCEPT
C:\PROGRAM FILES (X86)\MICROSOFT VISUAL STUDIO 14.0\VC\INCLUDE\XSTRING
C:\PROGRAM FILES (X86)\MICROSOFT VISUAL STUDIO 14.0\VC\INCLUDE\TYPEINFO
C:\PROGRAM FILES (X86)\MICROSOFT VISUAL STUDIO 14.0\VC\INCLUDE\VCRUNTIME_TYPEINFO.H
C:\PROGRAM FILES (X86)\MICROSOFT VISUAL STUDIO 14.0\VC\INCLUDE\XLOCINFO
C:\PROGRAM FILES (X86)\MICROSOFT VISUAL STUDIO 14.0\VC\INCLUDE\XLOCINFO.H
C:\PROGRAM FILES (X86)\WINDOWS KITS\10\INCLUDE\10.0.10240.0\UCRT\CTYPE.H
C:\PROGRAM FILES (X86)\WINDOWS KITS\10\INCLUDE\10.0.10240.0\UCRT\LOCALE.H
C:\PROGRAM FILES (X86)\MICROSOFT VISUAL STUDIO 14.0\VC\INCLUDE\XFACET
C:\PROGRAM FILES (X86)\MICROSOFT VISUAL STUDIO 14.0\VC\INCLUDE\SYSTEM_ERROR
C:\PROGRAM FILES (X86)\MICROSOFT VISUAL STUDIO 14.0\VC\INCLUDE\CERRNO
C:\PROGRAM FILES (X86)\WINDOWS KITS\10\INCLUDE\10.0.10240.0\UCRT\SHARE.H
C:\PROGRAM FILES (X86)\MICROSOFT VISUAL STUDIO 14.0\VC\INCLUDE\ITERATOR
C:\QT\QT5.9.2\5.9.2\MSVC2017_64\INCLUDE\QTCORE\QLIST.H
C:\QT\QT5.9.2\5.9.2\MSVC2017_64\INCLUDE\QTCORE\QALGORITHMS.H
C:\QT\QT5.9.2\5.9.2\MSVC2017_64\INCLUDE\QTCORE\QITERATOR.H
C:\QT\QT5.9.2\5.9.2\MSVC2017_64\INCLUDE\QTCORE\QHASHFUNCTIONS.H
C:\QT\QT5.9.2\5.9.2\MSVC2017_64\INCLUDE\QTCORE\QPAIR.H
C:\PROGRAM FILES (X86)\MICROSOFT VISUAL STUDIO 14.0\VC\INCLUDE\NUMERIC
C:\PROGRAM FILES (X86)\MICROSOFT VISUAL STUDIO 14.0\VC\INCLUDE\LIST
C:\QT\QT5.9.2\5.9.2\MSVC2017_64\INCLUDE\QTCORE\QBYTEARRAYLIST.H
C:\QT\QT5.9.2\5.9.2\MSVC2017_64\INCLUDE\QTCORE\QSTRINGLIST.H
C:\QT\QT5.9.2\5.9.2\MSVC2017_64\INCLUDE\QTCORE\QREGEXP.H
C:\QT\QT5.9.2\5.9.2\MSVC2017_64\INCLUDE\QTCORE\QSTRINGMATCHER.H
C:\QT\QT5.9.2\5.9.2\MSVC2017_64\INCLUDE\QTCORE\QSCOPEDPOINTER.H
C:\QT\QT5.9.2\5.9.2\MSVC2017_64\INCLUDE\QTCORE\QMETATYPE.H
C:\QT\QT5.9.2\5.9.2\MSVC2017_64\INCLUDE\QTCORE\QVARLENGTHARRAY.H
C:\QT\QT5.9.2\5.9.2\MSVC2017_64\INCLUDE\QTCORE\QCONTAINERFWD.H
C:\PROGRAM FILES (X86)\MICROSOFT VISUAL STUDIO 14.0\VC\INCLUDE\VECTOR
C:\PROGRAM FILES (X86)\MICROSOFT VISUAL STUDIO 14.0\VC\INCLUDE\MAP
C:\PROGRAM FILES (X86)\MICROSOFT VISUAL STUDIO 14.0\VC\INCLUDE\TUPLE
C:\PROGRAM FILES (X86)\MICROSOFT VISUAL STUDIO 14.0\VC\INCLUDE\XTREE
C:\QT\QT5.9.2\5.9.2\MSVC2017_64\INCLUDE\QTCORE\QOBJECT_IMPL.H
C:\QT\QT5.9.2\5.9.2\MSVC2017_64\INCLUDE\QTCORE\QMARGINS.H
C:\QT\QT5.9.2\5.9.2\MSVC2017_64\INCLUDE\QTGUI\QPAINTDEVICE.H
C:\QT\QT5.9.2\5.9.2\MSVC2017_64\INCLUDE\QTCORE\QRECT.H
C:\QT\QT5.9.2\5.9.2\MSVC2017_64\INCLUDE\QTCORE\QSIZE.H
C:\QT\QT5.9.2\5.9.2\MSVC2017_64\INCLUDE\QTCORE\QPOINT.H
C:\QT\QT5.9.2\5.9.2\MSVC2017_64\INCLUDE\QTGUI\QPALETTE.H
C:\QT\QT5.9.2\5.9.2\MSVC2017_64\INCLUDE\QTGUI\QCOLOR.H
C:\QT\QT5.9.2\5.9.2\MSVC2017_64\INCLUDE\QTGUI\QRGB.H
C:\QT\QT5.9.2\5.9.2\MSVC2017_64\INCLUDE\QTGUI\QRGBA64.H
C:\QT\QT5.9.2\5.9.2\MSVC2017_64\INCLUDE\QTGUI\QBRUSH.H
C:\QT\QT5.9.2\5.9.2\MSVC2017_64\INCLUDE\QTCORE\QVECTOR.H
C:\QT\QT5.9.2\5.9.2\MSVC2017_64\INCLUDE\QTGUI\QMATRIX.H
C:\QT\QT5.9.2\5.9.2\MSVC2017_64\INCLUDE\QTGUI\QPOLYGON.H
C:\QT\QT5.9.2\5.9.2\MSVC2017_64\INCLUDE\QTGUI\QREGION.H
C:\QT\QT5.9.2\5.9.2\MSVC2017_64\INCLUDE\QTCORE\QDATASTREAM.H
C:\QT\QT5.9.2\5.9.2\MSVC2017_64\INCLUDE\QTCORE\QIODEVICE.H
C:\QT\QT5.9.2\5.9.2\MSVC2017_64\INCLUDE\QTCORE\QLINE.H
C:\QT\QT5.9.2\5.9.2\MSVC2017_64\INCLUDE\QTGUI\QTRANSFORM.H
C:\QT\QT5.9.2\5.9.2\MSVC2017_64\INCLUDE\QTGUI\QPAINTERPATH.H
C:\QT\QT5.9.2\5.9.2\MSVC2017_64\INCLUDE\QTGUI\QIMAGE.H
C:\QT\QT5.9.2\5.9.2\MSVC2017_64\INCLUDE\QTGUI\QPIXELFORMAT.H
C:\QT\QT5.9.2\5.9.2\MSVC2017_64\INCLUDE\QTGUI\QPIXMAP.H
C:\QT\QT5.9.2\5.9.2\MSVC2017_64\INCLUDE\QTCORE\QSHAREDPOINTER.H
C:\QT\QT5.9.2\5.9.2\MSVC2017_64\INCLUDE\QTCORE\QSHAREDDATA.H
C:\QT\QT5.9.2\5.9.2\MSVC2017_64\INCLUDE\QTCORE\QHASH.H
C:\QT\QT5.9.2\5.9.2\MSVC2017_64\INCLUDE\QTCORE\QSHAREDPOINTER_IMPL.H
C:\QT\QT5.9.2\5.9.2\MSVC2017_64\INCLUDE\QTGUI\QFONT.H
C:\QT\QT5.9.2\5.9.2\MSVC2017_64\INCLUDE\QTGUI\QFONTMETRICS.H
C:\QT\QT5.9.2\5.9.2\MSVC2017_64\INCLUDE\QTGUI\QFONTINFO.H
C:\QT\QT5.9.2\5.9.2\MSVC2017_64\INCLUDE\QTWIDGETS\QSIZEPOLICY.H
C:\QT\QT5.9.2\5.9.2\MSVC2017_64\INCLUDE\QTGUI\QCURSOR.H
C:\QT\QT5.9.2\5.9.2\MSVC2017_64\INCLUDE\QTGUI\QKEYSEQUENCE.H
C:\QT\QT5.9.2\5.9.2\MSVC2017_64\INCLUDE\QTWIDGETS\QTABWIDGET.H
C:\QT\QT5.9.2\5.9.2\MSVC2017_64\INCLUDE\QTGUI\QICON.H
C:\USERS\OPATOVSKY\DOCUMENTS\VISUAL STUDIO 2015\PROJECTS\POLYDATA\POLYDATA\GENERATEDFILES\UI_POLYDATA.H
C:\QT\QT5.9.2\5.9.2\MSVC2017_64\INCLUDE\QTCORE\QVARIANT
C:\QT\QT5.9.2\5.9.2\MSVC2017_64\INCLUDE\QTCORE\QVARIANT.H
C:\QT\QT5.9.2\5.9.2\MSVC2017_64\INCLUDE\QTCORE\QMAP.H
C:\PROGRAM FILES (X86)\MICROSOFT VISUAL STUDIO 14.0\VC\INCLUDE\FUNCTIONAL
C:\PROGRAM FILES (X86)\MICROSOFT VISUAL STUDIO 14.0\VC\INCLUDE\XFUNCTIONAL
C:\QT\QT5.9.2\5.9.2\MSVC2017_64\INCLUDE\QTWIDGETS\QACTION
C:\QT\QT5.9.2\5.9.2\MSVC2017_64\INCLUDE\QTWIDGETS\QACTION.H
C:\QT\QT5.9.2\5.9.2\MSVC2017_64\INCLUDE\QTWIDGETS\QACTIONGROUP.H
C:\QT\QT5.9.2\5.9.2\MSVC2017_64\INCLUDE\QTWIDGETS\QAPPLICATION
C:\QT\QT5.9.2\5.9.2\MSVC2017_64\INCLUDE\QTWIDGETS\QAPPLICATION.H
C:\QT\QT5.9.2\5.9.2\MSVC2017_64\INCLUDE\QTCORE\QCOREAPPLICATION.H
C:\QT\QT5.9.2\5.9.2\MSVC2017_64\INCLUDE\QTCORE\QCOREEVENT.H
C:\QT\QT5.9.2\5.9.2\MSVC2017_64\INCLUDE\QTCORE\QEVENTLOOP.H
C:\QT\QT5.9.2\5.9.2\MSVC2017_64\INCLUDE\QTGUI\QGUIAPPLICATION.H
C:\QT\QT5.9.2\5.9.2\MSVC2017_64\INCLUDE\QTGUI\QINPUTMETHOD.H
C:\QT\QT5.9.2\5.9.2\MSVC2017_64\INCLUDE\QTCORE\QLOCALE.H
C:\QT\QT5.9.2\5.9.2\MSVC2017_64\INCLUDE\QTWIDGETS\QBUTTONGROUP
C:\QT\QT5.9.2\5.9.2\MSVC2017_64\INCLUDE\QTWIDGETS\QBUTTONGROUP.H
C:\QT\QT5.9.2\5.9.2\MSVC2017_64\INCLUDE\QTWIDGETS\QCOMBOBOX
C:\QT\QT5.9.2\5.9.2\MSVC2017_64\INCLUDE\QTWIDGETS\QCOMBOBOX.H
C:\QT\QT5.9.2\5.9.2\MSVC2017_64\INCLUDE\QTWIDGETS\QABSTRACTITEMDELEGATE.H
C:\QT\QT5.9.2\5.9.2\MSVC2017_64\INCLUDE\QTWIDGETS\QSTYLEOPTION.H
C:\QT\QT5.9.2\5.9.2\MSVC2017_64\INCLUDE\QTWIDGETS\QABSTRACTSPINBOX.H
C:\QT\QT5.9.2\5.9.2\MSVC2017_64\INCLUDE\QTGUI\QVALIDATOR.H
C:\QT\QT5.9.2\5.9.2\MSVC2017_64\INCLUDE\QTCORE\QREGULAREXPRESSION.H
C:\QT\QT5.9.2\5.9.2\MSVC2017_64\INCLUDE\QTWIDGETS\QSLIDER.H
C:\QT\QT5.9.2\5.9.2\MSVC2017_64\INCLUDE\QTWIDGETS\QABSTRACTSLIDER.H
C:\QT\QT5.9.2\5.9.2\MSVC2017_64\INCLUDE\QTWIDGETS\QSTYLE.H
C:\QT\QT5.9.2\5.9.2\MSVC2017_64\INCLUDE\QTWIDGETS\QTABBAR.H
C:\QT\QT5.9.2\5.9.2\MSVC2017_64\INCLUDE\QTWIDGETS\QRUBBERBAND.H
C:\QT\QT5.9.2\5.9.2\MSVC2017_64\INCLUDE\QTWIDGETS\QFRAME.H
C:\QT\QT5.9.2\5.9.2\MSVC2017_64\INCLUDE\QTCORE\QABSTRACTITEMMODEL.H
C:\QT\QT5.9.2\5.9.2\MSVC2017_64\INCLUDE\QTWIDGETS\QDOUBLESPINBOX
C:\QT\QT5.9.2\5.9.2\MSVC2017_64\INCLUDE\QTWIDGETS\QSPINBOX.H
C:\QT\QT5.9.2\5.9.2\MSVC2017_64\INCLUDE\QTWIDGETS\QHEADERVIEW
C:\QT\QT5.9.2\5.9.2\MSVC2017_64\INCLUDE\QTWIDGETS\QHEADERVIEW.H
C:\QT\QT5.9.2\5.9.2\MSVC2017_64\INCLUDE\QTWIDGETS\QABSTRACTITEMVIEW.H
C:\QT\QT5.9.2\5.9.2\MSVC2017_64\INCLUDE\QTWIDGETS\QABSTRACTSCROLLAREA.H
C:\QT\QT5.9.2\5.9.2\MSVC2017_64\INCLUDE\QTCORE\QITEMSELECTIONMODEL.H
C:\QT\QT5.9.2\5.9.2\MSVC2017_64\INCLUDE\QTCORE\QSET.H
C:\QT\QT5.9.2\5.9.2\MSVC2017_64\INCLUDE\QTWIDGETS\QLABEL
C:\QT\QT5.9.2\5.9.2\MSVC2017_64\INCLUDE\QTWIDGETS\QLABEL.H
C:\QT\QT5.9.2\5.9.2\MSVC2017_64\INCLUDE\QTWIDGETS\QMENU
C:\QT\QT5.9.2\5.9.2\MSVC2017_64\INCLUDE\QTWIDGETS\QMENU.H
C:\QT\QT5.9.2\5.9.2\MSVC2017_64\INCLUDE\QTWIDGETS\QMENUBAR
C:\QT\QT5.9.2\5.9.2\MSVC2017_64\INCLUDE\QTWIDGETS\QMENUBAR.H
C:\QT\QT5.9.2\5.9.2\MSVC2017_64\INCLUDE\QTWIDGETS\QPUSHBUTTON
C:\QT\QT5.9.2\5.9.2\MSVC2017_64\INCLUDE\QTWIDGETS\QPUSHBUTTON.H
C:\QT\QT5.9.2\5.9.2\MSVC2017_64\INCLUDE\QTWIDGETS\QABSTRACTBUTTON.H
C:\QT\QT5.9.2\5.9.2\MSVC2017_64\INCLUDE\QTWIDGETS\QSPINBOX
C:\QT\QT5.9.2\5.9.2\MSVC2017_64\INCLUDE\QTWIDGETS\QSTATUSBAR
C:\QT\QT5.9.2\5.9.2\MSVC2017_64\INCLUDE\QTWIDGETS\QSTATUSBAR.H
C:\QT\QT5.9.2\5.9.2\MSVC2017_64\INCLUDE\QTWIDGETS\QTABLEWIDGET
C:\QT\QT5.9.2\5.9.2\MSVC2017_64\INCLUDE\QTWIDGETS\QTABLEWIDGET.H
C:\QT\QT5.9.2\5.9.2\MSVC2017_64\INCLUDE\QTWIDGETS\QTABLEVIEW.H
C:\QT\QT5.9.2\5.9.2\MSVC2017_64\INCLUDE\QTWIDGETS\QTOOLBAR
C:\QT\QT5.9.2\5.9.2\MSVC2017_64\INCLUDE\QTWIDGETS\QTOOLBAR.H
C:\QT\QT5.9.2\5.9.2\MSVC2017_64\INCLUDE\QTWIDGETS\QWIDGET
C:\QT\QT5.9.2\5.9.2\MSVC2017_64\INCLUDE\QTCORE\QDEBUG
C:\QT\QT5.9.2\5.9.2\MSVC2017_64\INCLUDE\QTCORE\QDEBUG.H
C:\QT\QT5.9.2\5.9.2\MSVC2017_64\INCLUDE\QTCORE\QTEXTSTREAM.H
C:\QT\QT5.9.2\5.9.2\MSVC2017_64\INCLUDE\QTCORE\QCONTIGUOUSCACHE.H
C:\QT\QT5.9.2\5.9.2\MSVC2017_64\INCLUDE\QTCORE\QFILE
C:\QT\QT5.9.2\5.9.2\MSVC2017_64\INCLUDE\QTCORE\QFILE.H
C:\QT\QT5.9.2\5.9.2\MSVC2017_64\INCLUDE\QTCORE\QFILEDEVICE.H
C:\QT\QT5.9.2\5.9.2\MSVC2017_64\INCLUDE\QTWIDGETS\QFILEDIALOG
C:\QT\QT5.9.2\5.9.2\MSVC2017_64\INCLUDE\QTWIDGETS\QFILEDIALOG.H
C:\QT\QT5.9.2\5.9.2\MSVC2017_64\INCLUDE\QTCORE\QDIR.H
C:\QT\QT5.9.2\5.9.2\MSVC2017_64\INCLUDE\QTCORE\QFILEINFO.H
C:\QT\QT5.9.2\5.9.2\MSVC2017_64\INCLUDE\QTCORE\QURL.H
C:\QT\QT5.9.2\5.9.2\MSVC2017_64\INCLUDE\QTWIDGETS\QDIALOG.H
C:\QT\QT5.9.2\5.9.2\MSVC2017_64\INCLUDE\QTWIDGETS\QMESSAGEBOX
C:\QT\QT5.9.2\5.9.2\MSVC2017_64\INCLUDE\QTWIDGETS\QMESSAGEBOX.H
^C:\USERS\OPATOVSKY\DOCUMENTS\VISUAL STUDIO 2015\PROJECTS\POLYDATA\POLYDATA\MAIN.CPP
C:\USERS\OPATOVSKY\DOCUMENTS\VISUAL STUDIO 2015\PROJECTS\POLYDATA\POLYDATA\POLYDATA.H
C:\QT\QT5.9.2\5.9.2\MSVC2017_64\INCLUDE\QTWIDGETS\QMAINWINDOW
C:\QT\QT5.9.2\5.9.2\MSVC2017_64\INCLUDE\QTWIDGETS\QMAINWINDOW.H
C:\QT\QT5.9.2\5.9.2\MSVC2017_64\INCLUDE\QTWIDGETS\QTWIDGETSGLOBAL.H
C:\QT\QT5.9.2\5.9.2\MSVC2017_64\INCLUDE\QTGUI\QTGUIGLOBAL.H
C:\QT\QT5.9.2\5.9.2\MSVC2017_64\INCLUDE\QTCORE\QGLOBAL.H
C:\PROGRAM FILES (X86)\MICROSOFT VISUAL STUDIO 14.0\VC\INCLUDE\TYPE_TRAITS
C:\PROGRAM FILES (X86)\MICROSOFT VISUAL STUDIO 14.0\VC\INCLUDE\XSTDDEF
C:\PROGRAM FILES (X86)\MICROSOFT VISUAL STUDIO 14.0\VC\INCLUDE\CSTDDEF
C:\PROGRAM FILES (X86)\MICROSOFT VISUAL STUDIO 14.0\VC\INCLUDE\YVALS.H
C:\PROGRAM FILES (X86)\MICROSOFT VISUAL STUDIO 14.0\VC\INCLUDE\XKEYCHECK.H
C:\PROGRAM FILES (X86)\MICROSOFT VISUAL STUDIO 14.0\VC\INCLUDE\CRTDEFS.H
C:\PROGRAM FILES (X86)\MICROSOFT VISUAL STUDIO 14.0\VC\INCLUDE\VCRUNTIME.H
C:\PROGRAM FILES (X86)\MICROSOFT VISUAL STUDIO 14.0\VC\INCLUDE\SAL.H
C:\PROGRAM FILES (X86)\MICROSOFT VISUAL STUDIO 14.0\VC\INCLUDE\CONCURRENCYSAL.H
C:\PROGRAM FILES (X86)\MICROSOFT VISUAL STUDIO 14.0\VC\INCLUDE\VADEFS.H
C:\PROGRAM FILES (X86)\WINDOWS KITS\10\INCLUDE\10.0.10240.0\UCRT\CORECRT.H
C:\PROGRAM FILES (X86)\MICROSOFT VISUAL STUDIO 14.0\VC\INCLUDE\USE_ANSI.H
C:\PROGRAM FILES (X86)\WINDOWS KITS\10\INCLUDE\10.0.10240.0\UCRT\STDDEF.H
C:\PROGRAM FILES (X86)\MICROSOFT VISUAL STUDIO 14.0\VC\INCLUDE\CSTDLIB
C:\PROGRAM FILES (X86)\WINDOWS KITS\10\INCLUDE\10.0.10240.0\UCRT\STDLIB.H
C:\PROGRAM FILES (X86)\WINDOWS KITS\10\INCLUDE\10.0.10240.0\UCRT\CORECRT_MALLOC.H
C:\PROGRAM FILES (X86)\WINDOWS KITS\10\INCLUDE\10.0.10240.0\UCRT\CORECRT_SEARCH.H
C:\PROGRAM FILES (X86)\WINDOWS KITS\10\INCLUDE\10.0.10240.0\UCRT\CORECRT_WSTDLIB.H
C:\PROGRAM FILES (X86)\MICROSOFT VISUAL STUDIO 14.0\VC\INCLUDE\LIMITS.H
C:\PROGRAM FILES (X86)\MICROSOFT VISUAL STUDIO 14.0\VC\INCLUDE\INITIALIZER_LIST
C:\PROGRAM FILES (X86)\MICROSOFT VISUAL STUDIO 14.0\VC\INCLUDE\XTR1COMMON
C:\PROGRAM FILES (X86)\MICROSOFT VISUAL STUDIO 14.0\VC\INCLUDE\UTILITY
C:\PROGRAM FILES (X86)\MICROSOFT VISUAL STUDIO 14.0\VC\INCLUDE\IOSFWD
C:\PROGRAM FILES (X86)\MICROSOFT VISUAL STUDIO 14.0\VC\INCLUDE\CSTDIO
C:\PROGRAM FILES (X86)\WINDOWS KITS\10\INCLUDE\10.0.10240.0\UCRT\STDIO.H
C:\PROGRAM FILES (X86)\WINDOWS KITS\10\INCLUDE\10.0.10240.0\UCRT\CORECRT_WSTDIO.H
C:\PROGRAM FILES (X86)\WINDOWS KITS\10\INCLUDE\10.0.10240.0\UCRT\CORECRT_STDIO_CONFIG.H
C:\PROGRAM FILES (X86)\MICROSOFT VISUAL STUDIO 14.0\VC\INCLUDE\CSTRING
C:\PROGRAM FILES (X86)\WINDOWS KITS\10\INCLUDE\10.0.10240.0\UCRT\STRING.H
C:\PROGRAM FILES (X86)\WINDOWS KITS\10\INCLUDE\10.0.10240.0\UCRT\CORECRT_MEMORY.H
C:\PROGRAM FILES (X86)\WINDOWS KITS\10\INCLUDE\10.0.10240.0\UCRT\CORECRT_MEMCPY_S.H
C:\PROGRAM FILES (X86)\WINDOWS KITS\10\INCLUDE\10.0.10240.0\UCRT\ERRNO.H
C:\PROGRAM FILES (X86)\MICROSOFT VISUAL STUDIO 14.0\VC\INCLUDE\VCRUNTIME_STRING.H
C:\PROGRAM FILES (X86)\WINDOWS KITS\10\INCLUDE\10.0.10240.0\UCRT\CORECRT_WSTRING.H
C:\PROGRAM FILES (X86)\MICROSOFT VISUAL STUDIO 14.0\VC\INCLUDE\CWCHAR
C:\PROGRAM FILES (X86)\WINDOWS KITS\10\INCLUDE\10.0.10240.0\UCRT\WCHAR.H
C:\PROGRAM FILES (X86)\WINDOWS KITS\10\INCLUDE\10.0.10240.0\UCRT\CORECRT_WCONIO.H
C:\PROGRAM FILES (X86)\WINDOWS KITS\10\INCLUDE\10.0.10240.0\UCRT\CORECRT_WCTYPE.H
C:\PROGRAM FILES (X86)\WINDOWS KITS\10\INCLUDE\10.0.10240.0\UCRT\CORECRT_WDIRECT.H
C:\PROGRAM FILES (X86)\WINDOWS KITS\10\INCLUDE\10.0.10240.0\UCRT\CORECRT_WIO.H
C:\PROGRAM FILES (X86)\WINDOWS KITS\10\INCLUDE\10.0.10240.0\UCRT\CORECRT_SHARE.H
C:\PROGRAM FILES (X86)\WINDOWS KITS\10\INCLUDE\10.0.10240.0\UCRT\CORECRT_WPROCESS.H
C:\PROGRAM FILES (X86)\WINDOWS KITS\10\INCLUDE\10.0.10240.0\UCRT\CORECRT_WTIME.H
C:\PROGRAM FILES (X86)\WINDOWS KITS\10\INCLUDE\10.0.10240.0\UCRT\SYS\STAT.H
C:\PROGRAM FILES (X86)\WINDOWS KITS\10\INCLUDE\10.0.10240.0\UCRT\SYS\TYPES.H
C:\PROGRAM FILES (X86)\WINDOWS KITS\10\INCLUDE\10.0.10240.0\UCRT\CRTDBG.H
C:\PROGRAM FILES (X86)\MICROSOFT VISUAL STUDIO 14.0\VC\INCLUDE\VCRUNTIME_NEW_DEBUG.H
C:\PROGRAM FILES (X86)\MICROSOFT VISUAL STUDIO 14.0\VC\INCLUDE\VCRUNTIME_NEW.H
C:\QT\QT5.9.2\5.9.2\MSVC2017_64\INCLUDE\QTCORE\QCONFIG.H
C:\QT\QT5.9.2\5.9.2\MSVC2017_64\INCLUDE\QTCORE\QTCORE-CONFIG.H
C:\QT\QT5.9.2\5.9.2\MSVC2017_64\INCLUDE\QTCORE\QSYSTEMDETECTION.H
C:\QT\QT5.9.2\5.9.2\MSVC2017_64\INCLUDE\QTCORE\QPROCESSORDETECTION.H
C:\QT\QT5.9.2\5.9.2\MSVC2017_64\INCLUDE\QTCORE\QCOMPILERDETECTION.H
C:\PROGRAM FILES (X86)\MICROSOFT VISUAL STUDIO 14.0\VC\INCLUDE\ALGORITHM
C:\PROGRAM FILES (X86)\MICROSOFT VISUAL STUDIO 14.0\VC\INCLUDE\XMEMORY
C:\PROGRAM FILES (X86)\MICROSOFT VISUAL STUDIO 14.0\VC\INCLUDE\XMEMORY0
C:\PROGRAM FILES (X86)\MICROSOFT VISUAL STUDIO 14.0\VC\INCLUDE\CSTDINT
C:\PROGRAM FILES (X86)\MICROSOFT VISUAL STUDIO 14.0\VC\INCLUDE\STDINT.H
C:\PROGRAM FILES (X86)\MICROSOFT VISUAL STUDIO 14.0\VC\INCLUDE\LIMITS
C:\PROGRAM FILES (X86)\MICROSOFT VISUAL STUDIO 14.0\VC\INCLUDE\YMATH.H
C:\PROGRAM FILES (X86)\MICROSOFT VISUAL STUDIO 14.0\VC\INCLUDE\CFLOAT
C:\PROGRAM FILES (X86)\WINDOWS KITS\10\INCLUDE\10.0.10240.0\UCRT\FLOAT.H
C:\PROGRAM FILES (X86)\MICROSOFT VISUAL STUDIO 14.0\VC\INCLUDE\CLIMITS
C:\PROGRAM FILES (X86)\MICROSOFT VISUAL STUDIO 14.0\VC\INCLUDE\CMATH
C:\PROGRAM FILES (X86)\WINDOWS KITS\10\INCLUDE\10.0.10240.0\UCRT\MATH.H
C:\PROGRAM FILES (X86)\MICROSOFT VISUAL STUDIO 14.0\VC\INCLUDE\XTGMATH.H
C:\PROGRAM FILES (X86)\MICROSOFT VISUAL STUDIO 14.0\VC\INCLUDE\NEW
C:\PROGRAM FILES (X86)\MICROSOFT VISUAL STUDIO 14.0\VC\INCLUDE\EXCEPTION
C:\PROGRAM FILES (X86)\WINDOWS KITS\10\INCLUDE\10.0.10240.0\UCRT\MALLOC.H
C:\PROGRAM FILES (X86)\MICROSOFT VISUAL STUDIO 14.0\VC\INCLUDE\VCRUNTIME_EXCEPTION.H
C:\PROGRAM FILES (X86)\MICROSOFT VISUAL STUDIO 14.0\VC\INCLUDE\EH.H
C:\PROGRAM FILES (X86)\WINDOWS KITS\10\INCLUDE\10.0.10240.0\UCRT\CORECRT_TERMINATE.H
C:\PROGRAM FILES (X86)\MICROSOFT VISUAL STUDIO 14.0\VC\INCLUDE\XUTILITY
C:\PROGRAM FILES (X86)\MICROSOFT VISUAL STUDIO 14.0\VC\INCLUDE\XATOMIC0.H
C:\PROGRAM FILES (X86)\MICROSOFT VISUAL STUDIO 14.0\VC\INCLUDE\INTRIN.H
C:\PROGRAM FILES (X86)\MICROSOFT VISUAL STUDIO 14.0\VC\INCLUDE\SETJMP.H
C:\PROGRAM FILES (X86)\MICROSOFT VISUAL STUDIO 14.0\VC\INCLUDE\IMMINTRIN.H
C:\PROGRAM FILES (X86)\MICROSOFT VISUAL STUDIO 14.0\VC\INCLUDE\WMMINTRIN.H
C:\PROGRAM FILES (X86)\MICROSOFT VISUAL STUDIO 14.0\VC\INCLUDE\NMMINTRIN.H
C:\PROGRAM FILES (X86)\MICROSOFT VISUAL STUDIO 14.0\VC\INCLUDE\SMMINTRIN.H
C:\PROGRAM FILES (X86)\MICROSOFT VISUAL STUDIO 14.0\VC\INCLUDE\TMMINTRIN.H
C:\PROGRAM FILES (X86)\MICROSOFT VISUAL STUDIO 14.0\VC\INCLUDE\PMMINTRIN.H
C:\PROGRAM FILES (X86)\MICROSOFT VISUAL STUDIO 14.0\VC\INCLUDE\EMMINTRIN.H
C:\PROGRAM FILES (X86)\MICROSOFT VISUAL STUDIO 14.0\VC\INCLUDE\XMMINTRIN.H
C:\PROGRAM FILES (X86)\MICROSOFT VISUAL STUDIO 14.0\VC\INCLUDE\MMINTRIN.H
C:\PROGRAM FILES (X86)\MICROSOFT VISUAL STUDIO 14.0\VC\INCLUDE\AMMINTRIN.H
C:\QT\QT5.9.2\5.9.2\MSVC2017_64\INCLUDE\QTCORE\QTYPEINFO.H
C:\QT\QT5.9.2\5.9.2\MSVC2017_64\INCLUDE\QTCORE\QSYSINFO.H
C:\QT\QT5.9.2\5.9.2\MSVC2017_64\INCLUDE\QTCORE\QLOGGING.H
C:\QT\QT5.9.2\5.9.2\MSVC2017_64\INCLUDE\QTCORE\QFLAGS.H
C:\QT\QT5.9.2\5.9.2\MSVC2017_64\INCLUDE\QTCORE\QATOMIC.H
C:\QT\QT5.9.2\5.9.2\MSVC2017_64\INCLUDE\QTCORE\QBASICATOMIC.H
C:\QT\QT5.9.2\5.9.2\MSVC2017_64\INCLUDE\QTCORE\QATOMIC_MSVC.H
C:\QT\QT5.9.2\5.9.2\MSVC2017_64\INCLUDE\QTCORE\QGENERICATOMIC.H
C:\QT\QT5.9.2\5.9.2\MSVC2017_64\INCLUDE\QTCORE\QGLOBALSTATIC.H
C:\QT\QT5.9.2\5.9.2\MSVC2017_64\INCLUDE\QTCORE\QNUMERIC.H
C:\QT\QT5.9.2\5.9.2\MSVC2017_64\INCLUDE\QTCORE\QVERSIONTAGGING.H
C:\QT\QT5.9.2\5.9.2\MSVC2017_64\INCLUDE\QTGUI\QTGUI-CONFIG.H
C:\QT\QT5.9.2\5.9.2\MSVC2017_64\INCLUDE\QTWIDGETS\QTWIDGETS-CONFIG.H
C:\QT\QT5.9.2\5.9.2\MSVC2017_64\INCLUDE\QTWIDGETS\QWIDGET.H
C:\QT\QT5.9.2\5.9.2\MSVC2017_64\INCLUDE\QTGUI\QWINDOWDEFS.H
C:\QT\QT5.9.2\5.9.2\MSVC2017_64\INCLUDE\QTCORE\QOBJECTDEFS.H
C:\QT\QT5.9.2\5.9.2\MSVC2017_64\INCLUDE\QTCORE\QNAMESPACE.H
C:\QT\QT5.9.2\5.9.2\MSVC2017_64\INCLUDE\QTCORE\QOBJECTDEFS_IMPL.H
C:\QT\QT5.9.2\5.9.2\MSVC2017_64\INCLUDE\QTGUI\QWINDOWDEFS_WIN.H
C:\QT\QT5.9.2\5.9.2\MSVC2017_64\INCLUDE\QTCORE\QOBJECT.H
C:\QT\QT5.9.2\5.9.2\MSVC2017_64\INCLUDE\QTCORE\QSTRING.H
C:\QT\QT5.9.2\5.9.2\MSVC2017_64\INCLUDE\QTCORE\QCHAR.H
C:\QT\QT5.9.2\5.9.2\MSVC2017_64\INCLUDE\QTCORE\QBYTEARRAY.H
C:\QT\QT5.9.2\5.9.2\MSVC2017_64\INCLUDE\QTCORE\QREFCOUNT.H
C:\QT\QT5.9.2\5.9.2\MSVC2017_64\INCLUDE\QTCORE\QARRAYDATA.H
C:\PROGRAM FILES (X86)\MICROSOFT VISUAL STUDIO 14.0\VC\INCLUDE\STDARG.H
C:\PROGRAM FILES (X86)\MICROSOFT VISUAL STUDIO 14.0\VC\INCLUDE\STRING
C:\PROGRAM FILES (X86)\MICROSOFT VISUAL STUDIO 14.0\VC\INCLUDE\ISTREAM
C:\PROGRAM FILES (X86)\MICROSOFT VISUAL STUDIO 14.0\VC\INCLUDE\OSTREAM
C:\PROGRAM FILES (X86)\MICROSOFT VISUAL STUDIO 14.0\VC\INCLUDE\IOS
C:\PROGRAM FILES (X86)\MICROSOFT VISUAL STUDIO 14.0\VC\INCLUDE\XLOCNUM
C:\PROGRAM FILES (X86)\MICROSOFT VISUAL STUDIO 14.0\VC\INCLUDE\STREAMBUF
C:\PROGRAM FILES (X86)\MICROSOFT VISUAL STUDIO 14.0\VC\INCLUDE\XIOSBASE
C:\PROGRAM FILES (X86)\MICROSOFT VISUAL STUDIO 14.0\VC\INCLUDE\XLOCALE
C:\PROGRAM FILES (X86)\MICROSOFT VISUAL STUDIO 14.0\VC\INCLUDE\STDEXCEPT
C:\PROGRAM FILES (X86)\MICROSOFT VISUAL STUDIO 14.0\VC\INCLUDE\XSTRING
C:\PROGRAM FILES (X86)\MICROSOFT VISUAL STUDIO 14.0\VC\INCLUDE\TYPEINFO
C:\PROGRAM FILES (X86)\MICROSOFT VISUAL STUDIO 14.0\VC\INCLUDE\VCRUNTIME_TYPEINFO.H
C:\PROGRAM FILES (X86)\MICROSOFT VISUAL STUDIO 14.0\VC\INCLUDE\XLOCINFO
C:\PROGRAM FILES (X86)\MICROSOFT VISUAL STUDIO 14.0\VC\INCLUDE\XLOCINFO.H
C:\PROGRAM FILES (X86)\WINDOWS KITS\10\INCLUDE\10.0.10240.0\UCRT\CTYPE.H
C:\PROGRAM FILES (X86)\WINDOWS KITS\10\INCLUDE\10.0.10240.0\UCRT\LOCALE.H
C:\PROGRAM FILES (X86)\MICROSOFT VISUAL STUDIO 14.0\VC\INCLUDE\XFACET
C:\PROGRAM FILES (X86)\MICROSOFT VISUAL STUDIO 14.0\VC\INCLUDE\SYSTEM_ERROR
C:\PROGRAM FILES (X86)\MICROSOFT VISUAL STUDIO 14.0\VC\INCLUDE\CERRNO
C:\PROGRAM FILES (X86)\WINDOWS KITS\10\INCLUDE\10.0.10240.0\UCRT\SHARE.H
C:\PROGRAM FILES (X86)\MICROSOFT VISUAL STUDIO 14.0\VC\INCLUDE\ITERATOR
C:\QT\QT5.9.2\5.9.2\MSVC2017_64\INCLUDE\QTCORE\QLIST.H
C:\QT\QT5.9.2\5.9.2\MSVC2017_64\INCLUDE\QTCORE\QALGORITHMS.H
C:\QT\QT5.9.2\5.9.2\MSVC2017_64\INCLUDE\QTCORE\QITERATOR.H
C:\QT\QT5.9.2\5.9.2\MSVC2017_64\INCLUDE\QTCORE\QHASHFUNCTIONS.H
C:\QT\QT5.9.2\5.9.2\MSVC2017_64\INCLUDE\QTCORE\QPAIR.H
C:\PROGRAM FILES (X86)\MICROSOFT VISUAL STUDIO 14.0\VC\INCLUDE\NUMERIC
C:\PROGRAM FILES (X86)\MICROSOFT VISUAL STUDIO 14.0\VC\INCLUDE\LIST
C:\QT\QT5.9.2\5.9.2\MSVC2017_64\INCLUDE\QTCORE\QBYTEARRAYLIST.H
C:\QT\QT5.9.2\5.9.2\MSVC2017_64\INCLUDE\QTCORE\QSTRINGLIST.H
C:\QT\QT5.9.2\5.9.2\MSVC2017_64\INCLUDE\QTCORE\QREGEXP.H
C:\QT\QT5.9.2\5.9.2\MSVC2017_64\INCLUDE\QTCORE\QSTRINGMATCHER.H
C:\QT\QT5.9.2\5.9.2\MSVC2017_64\INCLUDE\QTCORE\QSCOPEDPOINTER.H
C:\QT\QT5.9.2\5.9.2\MSVC2017_64\INCLUDE\QTCORE\QMETATYPE.H
C:\QT\QT5.9.2\5.9.2\MSVC2017_64\INCLUDE\QTCORE\QVARLENGTHARRAY.H
C:\QT\QT5.9.2\5.9.2\MSVC2017_64\INCLUDE\QTCORE\QCONTAINERFWD.H
C:\PROGRAM FILES (X86)\MICROSOFT VISUAL STUDIO 14.0\VC\INCLUDE\VECTOR
C:\PROGRAM FILES (X86)\MICROSOFT VISUAL STUDIO 14.0\VC\INCLUDE\MAP
C:\PROGRAM FILES (X86)\MICROSOFT VISUAL STUDIO 14.0\VC\INCLUDE\TUPLE
C:\PROGRAM FILES (X86)\MICROSOFT VISUAL STUDIO 14.0\VC\INCLUDE\XTREE
C:\QT\QT5.9.2\5.9.2\MSVC2017_64\INCLUDE\QTCORE\QOBJECT_IMPL.H
C:\QT\QT5.9.2\5.9.2\MSVC2017_64\INCLUDE\QTCORE\QMARGINS.H
C:\QT\QT5.9.2\5.9.2\MSVC2017_64\INCLUDE\QTGUI\QPAINTDEVICE.H
C:\QT\QT5.9.2\5.9.2\MSVC2017_64\INCLUDE\QTCORE\QRECT.H
C:\QT\QT5.9.2\5.9.2\MSVC2017_64\INCLUDE\QTCORE\QSIZE.H
C:\QT\QT5.9.2\5.9.2\MSVC2017_64\INCLUDE\QTCORE\QPOINT.H
C:\QT\QT5.9.2\5.9.2\MSVC2017_64\INCLUDE\QTGUI\QPALETTE.H
C:\QT\QT5.9.2\5.9.2\MSVC2017_64\INCLUDE\QTGUI\QCOLOR.H
C:\QT\QT5.9.2\5.9.2\MSVC2017_64\INCLUDE\QTGUI\QRGB.H
C:\QT\QT5.9.2\5.9.2\MSVC2017_64\INCLUDE\QTGUI\QRGBA64.H
C:\QT\QT5.9.2\5.9.2\MSVC2017_64\INCLUDE\QTGUI\QBRUSH.H
C:\QT\QT5.9.2\5.9.2\MSVC2017_64\INCLUDE\QTCORE\QVECTOR.H
C:\QT\QT5.9.2\5.9.2\MSVC2017_64\INCLUDE\QTGUI\QMATRIX.H
C:\QT\QT5.9.2\5.9.2\MSVC2017_64\INCLUDE\QTGUI\QPOLYGON.H
C:\QT\QT5.9.2\5.9.2\MSVC2017_64\INCLUDE\QTGUI\QREGION.H
C:\QT\QT5.9.2\5.9.2\MSVC2017_64\INCLUDE\QTCORE\QDATASTREAM.H
C:\QT\QT5.9.2\5.9.2\MSVC2017_64\INCLUDE\QTCORE\QIODEVICE.H
C:\QT\QT5.9.2\5.9.2\MSVC2017_64\INCLUDE\QTCORE\QLINE.H
C:\QT\QT5.9.2\5.9.2\MSVC2017_64\INCLUDE\QTGUI\QTRANSFORM.H
C:\QT\QT5.9.2\5.9.2\MSVC2017_64\INCLUDE\QTGUI\QPAINTERPATH.H
C:\QT\QT5.9.2\5.9.2\MSVC2017_64\INCLUDE\QTGUI\QIMAGE.H
C:\QT\QT5.9.2\5.9.2\MSVC2017_64\INCLUDE\QTGUI\QPIXELFORMAT.H
C:\QT\QT5.9.2\5.9.2\MSVC2017_64\INCLUDE\QTGUI\QPIXMAP.H
C:\QT\QT5.9.2\5.9.2\MSVC2017_64\INCLUDE\QTCORE\QSHAREDPOINTER.H
C:\QT\QT5.9.2\5.9.2\MSVC2017_64\INCLUDE\QTCORE\QSHAREDDATA.H
C:\QT\QT5.9.2\5.9.2\MSVC2017_64\INCLUDE\QTCORE\QHASH.H
C:\QT\QT5.9.2\5.9.2\MSVC2017_64\INCLUDE\QTCORE\QSHAREDPOINTER_IMPL.H
C:\QT\QT5.9.2\5.9.2\MSVC2017_64\INCLUDE\QTGUI\QFONT.H
C:\QT\QT5.9.2\5.9.2\MSVC2017_64\INCLUDE\QTGUI\QFONTMETRICS.H
C:\QT\QT5.9.2\5.9.2\MSVC2017_64\INCLUDE\QTGUI\QFONTINFO.H
C:\QT\QT5.9.2\5.9.2\MSVC2017_64\INCLUDE\QTWIDGETS\QSIZEPOLICY.H
C:\QT\QT5.9.2\5.9.2\MSVC2017_64\INCLUDE\QTGUI\QCURSOR.H
C:\QT\QT5.9.2\5.9.2\MSVC2017_64\INCLUDE\QTGUI\QKEYSEQUENCE.H
C:\QT\QT5.9.2\5.9.2\MSVC2017_64\INCLUDE\QTWIDGETS\QTABWIDGET.H
C:\QT\QT5.9.2\5.9.2\MSVC2017_64\INCLUDE\QTGUI\QICON.H
C:\USERS\OPATOVSKY\DOCUMENTS\VISUAL STUDIO 2015\PROJECTS\POLYDATA\POLYDATA\GENERATEDFILES\UI_POLYDATA.H
C:\QT\QT5.9.2\5.9.2\MSVC2017_64\INCLUDE\QTCORE\QVARIANT
C:\QT\QT5.9.2\5.9.2\MSVC2017_64\INCLUDE\QTCORE\QVARIANT.H
C:\QT\QT5.9.2\5.9.2\MSVC2017_64\INCLUDE\QTCORE\QMAP.H
C:\PROGRAM FILES (X86)\MICROSOFT VISUAL STUDIO 14.0\VC\INCLUDE\FUNCTIONAL
C:\PROGRAM FILES (X86)\MICROSOFT VISUAL STUDIO 14.0\VC\INCLUDE\XFUNCTIONAL
C:\QT\QT5.9.2\5.9.2\MSVC2017_64\INCLUDE\QTWIDGETS\QACTION
C:\QT\QT5.9.2\5.9.2\MSVC2017_64\INCLUDE\QTWIDGETS\QACTION.H
C:\QT\QT5.9.2\5.9.2\MSVC2017_64\INCLUDE\QTWIDGETS\QACTIONGROUP.H
C:\QT\QT5.9.2\5.9.2\MSVC2017_64\INCLUDE\QTWIDGETS\QAPPLICATION
C:\QT\QT5.9.2\5.9.2\MSVC2017_64\INCLUDE\QTWIDGETS\QAPPLICATION.H
C:\QT\QT5.9.2\5.9.2\MSVC2017_64\INCLUDE\QTCORE\QCOREAPPLICATION.H
C:\QT\QT5.9.2\5.9.2\MSVC2017_64\INCLUDE\QTCORE\QCOREEVENT.H
C:\QT\QT5.9.2\5.9.2\MSVC2017_64\INCLUDE\QTCORE\QEVENTLOOP.H
C:\QT\QT5.9.2\5.9.2\MSVC2017_64\INCLUDE\QTGUI\QGUIAPPLICATION.H
C:\QT\QT5.9.2\5.9.2\MSVC2017_64\INCLUDE\QTGUI\QINPUTMETHOD.H
C:\QT\QT5.9.2\5.9.2\MSVC2017_64\INCLUDE\QTCORE\QLOCALE.H
C:\QT\QT5.9.2\5.9.2\MSVC2017_64\INCLUDE\QTWIDGETS\QBUTTONGROUP
C:\QT\QT5.9.2\5.9.2\MSVC2017_64\INCLUDE\QTWIDGETS\QBUTTONGROUP.H
C:\QT\QT5.9.2\5.9.2\MSVC2017_64\INCLUDE\QTWIDGETS\QCOMBOBOX
C:\QT\QT5.9.2\5.9.2\MSVC2017_64\INCLUDE\QTWIDGETS\QCOMBOBOX.H
C:\QT\QT5.9.2\5.9.2\MSVC2017_64\INCLUDE\QTWIDGETS\QABSTRACTITEMDELEGATE.H
C:\QT\QT5.9.2\5.9.2\MSVC2017_64\INCLUDE\QTWIDGETS\QSTYLEOPTION.H
C:\QT\QT5.9.2\5.9.2\MSVC2017_64\INCLUDE\QTWIDGETS\QABSTRACTSPINBOX.H
C:\QT\QT5.9.2\5.9.2\MSVC2017_64\INCLUDE\QTGUI\QVALIDATOR.H
C:\QT\QT5.9.2\5.9.2\MSVC2017_64\INCLUDE\QTCORE\QREGULAREXPRESSION.H
C:\QT\QT5.9.2\5.9.2\MSVC2017_64\INCLUDE\QTWIDGETS\QSLIDER.H
C:\QT\QT5.9.2\5.9.2\MSVC2017_64\INCLUDE\QTWIDGETS\QABSTRACTSLIDER.H
C:\QT\QT5.9.2\5.9.2\MSVC2017_64\INCLUDE\QTWIDGETS\QSTYLE.H
C:\QT\QT5.9.2\5.9.2\MSVC2017_64\INCLUDE\QTWIDGETS\QTABBAR.H
C:\QT\QT5.9.2\5.9.2\MSVC2017_64\INCLUDE\QTWIDGETS\QRUBBERBAND.H
C:\QT\QT5.9.2\5.9.2\MSVC2017_64\INCLUDE\QTWIDGETS\QFRAME.H
C:\QT\QT5.9.2\5.9.2\MSVC2017_64\INCLUDE\QTCORE\QABSTRACTITEMMODEL.H
C:\QT\QT5.9.2\5.9.2\MSVC2017_64\INCLUDE\QTWIDGETS\QDOUBLESPINBOX
C:\QT\QT5.9.2\5.9.2\MSVC2017_64\INCLUDE\QTWIDGETS\QSPINBOX.H
C:\QT\QT5.9.2\5.9.2\MSVC2017_64\INCLUDE\QTWIDGETS\QHEADERVIEW
C:\QT\QT5.9.2\5.9.2\MSVC2017_64\INCLUDE\QTWIDGETS\QHEADERVIEW.H
C:\QT\QT5.9.2\5.9.2\MSVC2017_64\INCLUDE\QTWIDGETS\QABSTRACTITEMVIEW.H
C:\QT\QT5.9.2\5.9.2\MSVC2017_64\INCLUDE\QTWIDGETS\QABSTRACTSCROLLAREA.H
C:\QT\QT5.9.2\5.9.2\MSVC2017_64\INCLUDE\QTCORE\QITEMSELECTIONMODEL.H
C:\QT\QT5.9.2\5.9.2\MSVC2017_64\INCLUDE\QTCORE\QSET.H
C:\QT\QT5.9.2\5.9.2\MSVC2017_64\INCLUDE\QTWIDGETS\QLABEL
C:\QT\QT5.9.2\5.9.2\MSVC2017_64\INCLUDE\QTWIDGETS\QLABEL.H
C:\QT\QT5.9.2\5.9.2\MSVC2017_64\INCLUDE\QTWIDGETS\QMENU
C:\QT\QT5.9.2\5.9.2\MSVC2017_64\INCLUDE\QTWIDGETS\QMENU.H
C:\QT\QT5.9.2\5.9.2\MSVC2017_64\INCLUDE\QTWIDGETS\QMENUBAR
C:\QT\QT5.9.2\5.9.2\MSVC2017_64\INCLUDE\QTWIDGETS\QMENUBAR.H
C:\QT\QT5.9.2\5.9.2\MSVC2017_64\INCLUDE\QTWIDGETS\QPUSHBUTTON
C:\QT\QT5.9.2\5.9.2\MSVC2017_64\INCLUDE\QTWIDGETS\QPUSHBUTTON.H
C:\QT\QT5.9.2\5.9.2\MSVC2017_64\INCLUDE\QTWIDGETS\QABSTRACTBUTTON.H
C:\QT\QT5.9.2\5.9.2\MSVC2017_64\INCLUDE\QTWIDGETS\QSPINBOX
C:\QT\QT5.9.2\5.9.2\MSVC2017_64\INCLUDE\QTWIDGETS\QSTATUSBAR
C:\QT\QT5.9.2\5.9.2\MSVC2017_64\INCLUDE\QTWIDGETS\QSTATUSBAR.H
C:\QT\QT5.9.2\5.9.2\MSVC2017_64\INCLUDE\QTWIDGETS\QTABLEWIDGET
C:\QT\QT5.9.2\5.9.2\MSVC2017_64\INCLUDE\QTWIDGETS\QTABLEWIDGET.H
C:\QT\QT5.9.2\5.9.2\MSVC2017_64\INCLUDE\QTWIDGETS\QTABLEVIEW.H
C:\QT\QT5.9.2\5.9.2\MSVC2017_64\INCLUDE\QTWIDGETS\QTOOLBAR
C:\QT\QT5.9.2\5.9.2\MSVC2017_64\INCLUDE\QTWIDGETS\QTOOLBAR.H
C:\QT\QT5.9.2\5.9.2\MSVC2017_64\INCLUDE\QTWIDGETS\QWIDGET
C:\QT\QT5.9.2\5.9.2\MSVC2017_64\INCLUDE\QTCORE\QDEBUG
C:\QT\QT5.9.2\5.9.2\MSVC2017_64\INCLUDE\QTCORE\QDEBUG.H
C:\QT\QT5.9.2\5.9.2\MSVC2017_64\INCLUDE\QTCORE\QTEXTSTREAM.H
C:\QT\QT5.9.2\5.9.2\MSVC2017_64\INCLUDE\QTCORE\QCONTIGUOUSCACHE.H
C:\QT\QT5.9.2\5.9.2\MSVC2017_64\INCLUDE\QTCORE\QFILE
C:\QT\QT5.9.2\5.9.2\MSVC2017_64\INCLUDE\QTCORE\QFILE.H
C:\QT\QT5.9.2\5.9.2\MSVC2017_64\INCLUDE\QTCORE\QFILEDEVICE.H
C:\QT\QT5.9.2\5.9.2\MSVC2017_64\INCLUDE\QTWIDGETS\QFILEDIALOG
C:\QT\QT5.9.2\5.9.2\MSVC2017_64\INCLUDE\QTWIDGETS\QFILEDIALOG.H
C:\QT\QT5.9.2\5.9.2\MSVC2017_64\INCLUDE\QTCORE\QDIR.H
C:\QT\QT5.9.2\5.9.2\MSVC2017_64\INCLUDE\QTCORE\QFILEINFO.H
C:\QT\QT5.9.2\5.9.2\MSVC2017_64\INCLUDE\QTCORE\QURL.H
C:\QT\QT5.9.2\5.9.2\MSVC2017_64\INCLUDE\QTWIDGETS\QDIALOG.H
C:\QT\QT5.9.2\5.9.2\MSVC2017_64\INCLUDE\QTWIDGETS\QMESSAGEBOX
C:\QT\QT5.9.2\5.9.2\MSVC2017_64\INCLUDE\QTWIDGETS\QMESSAGEBOX.H
^C:\USERS\OPATOVSKY\DOCUMENTS\VISUAL STUDIO 2015\PROJECTS\POLYDATA\POLYDATA\POLYDATA.CPP
C:\USERS\OPATOVSKY\DOCUMENTS\VISUAL STUDIO 2015\PROJECTS\POLYDATA\POLYDATA\POLYDATA.H
C:\QT\QT5.9.2\5.9.2\MSVC2017_64\INCLUDE\QTWIDGETS\QMAINWINDOW
C:\QT\QT5.9.2\5.9.2\MSVC2017_64\INCLUDE\QTWIDGETS\QMAINWINDOW.H
C:\QT\QT5.9.2\5.9.2\MSVC2017_64\INCLUDE\QTWIDGETS\QTWIDGETSGLOBAL.H
C:\QT\QT5.9.2\5.9.2\MSVC2017_64\INCLUDE\QTGUI\QTGUIGLOBAL.H
C:\QT\QT5.9.2\5.9.2\MSVC2017_64\INCLUDE\QTCORE\QGLOBAL.H
C:\PROGRAM FILES (X86)\MICROSOFT VISUAL STUDIO 14.0\VC\INCLUDE\TYPE_TRAITS
C:\PROGRAM FILES (X86)\MICROSOFT VISUAL STUDIO 14.0\VC\INCLUDE\XSTDDEF
C:\PROGRAM FILES (X86)\MICROSOFT VISUAL STUDIO 14.0\VC\INCLUDE\CSTDDEF
C:\PROGRAM FILES (X86)\MICROSOFT VISUAL STUDIO 14.0\VC\INCLUDE\YVALS.H
C:\PROGRAM FILES (X86)\MICROSOFT VISUAL STUDIO 14.0\VC\INCLUDE\XKEYCHECK.H
C:\PROGRAM FILES (X86)\MICROSOFT VISUAL STUDIO 14.0\VC\INCLUDE\CRTDEFS.H
C:\PROGRAM FILES (X86)\MICROSOFT VISUAL STUDIO 14.0\VC\INCLUDE\VCRUNTIME.H
C:\PROGRAM FILES (X86)\MICROSOFT VISUAL STUDIO 14.0\VC\INCLUDE\SAL.H
C:\PROGRAM FILES (X86)\MICROSOFT VISUAL STUDIO 14.0\VC\INCLUDE\CONCURRENCYSAL.H
C:\PROGRAM FILES (X86)\MICROSOFT VISUAL STUDIO 14.0\VC\INCLUDE\VADEFS.H
C:\PROGRAM FILES (X86)\WINDOWS KITS\10\INCLUDE\10.0.10240.0\UCRT\CORECRT.H
C:\PROGRAM FILES (X86)\MICROSOFT VISUAL STUDIO 14.0\VC\INCLUDE\USE_ANSI.H
C:\PROGRAM FILES (X86)\WINDOWS KITS\10\INCLUDE\10.0.10240.0\UCRT\STDDEF.H
C:\PROGRAM FILES (X86)\MICROSOFT VISUAL STUDIO 14.0\VC\INCLUDE\CSTDLIB
C:\PROGRAM FILES (X86)\WINDOWS KITS\10\INCLUDE\10.0.10240.0\UCRT\STDLIB.H
C:\PROGRAM FILES (X86)\WINDOWS KITS\10\INCLUDE\10.0.10240.0\UCRT\CORECRT_MALLOC.H
C:\PROGRAM FILES (X86)\WINDOWS KITS\10\INCLUDE\10.0.10240.0\UCRT\CORECRT_SEARCH.H
C:\PROGRAM FILES (X86)\WINDOWS KITS\10\INCLUDE\10.0.10240.0\UCRT\CORECRT_WSTDLIB.H
C:\PROGRAM FILES (X86)\MICROSOFT VISUAL STUDIO 14.0\VC\INCLUDE\LIMITS.H
C:\PROGRAM FILES (X86)\MICROSOFT VISUAL STUDIO 14.0\VC\INCLUDE\INITIALIZER_LIST
C:\PROGRAM FILES (X86)\MICROSOFT VISUAL STUDIO 14.0\VC\INCLUDE\XTR1COMMON
C:\PROGRAM FILES (X86)\MICROSOFT VISUAL STUDIO 14.0\VC\INCLUDE\UTILITY
C:\PROGRAM FILES (X86)\MICROSOFT VISUAL STUDIO 14.0\VC\INCLUDE\IOSFWD
C:\PROGRAM FILES (X86)\MICROSOFT VISUAL STUDIO 14.0\VC\INCLUDE\CSTDIO
C:\PROGRAM FILES (X86)\WINDOWS KITS\10\INCLUDE\10.0.10240.0\UCRT\STDIO.H
C:\PROGRAM FILES (X86)\WINDOWS KITS\10\INCLUDE\10.0.10240.0\UCRT\CORECRT_WSTDIO.H
C:\PROGRAM FILES (X86)\WINDOWS KITS\10\INCLUDE\10.0.10240.0\UCRT\CORECRT_STDIO_CONFIG.H
C:\PROGRAM FILES (X86)\MICROSOFT VISUAL STUDIO 14.0\VC\INCLUDE\CSTRING
C:\PROGRAM FILES (X86)\WINDOWS KITS\10\INCLUDE\10.0.10240.0\UCRT\STRING.H
C:\PROGRAM FILES (X86)\WINDOWS KITS\10\INCLUDE\10.0.10240.0\UCRT\CORECRT_MEMORY.H
C:\PROGRAM FILES (X86)\WINDOWS KITS\10\INCLUDE\10.0.10240.0\UCRT\CORECRT_MEMCPY_S.H
C:\PROGRAM FILES (X86)\WINDOWS KITS\10\INCLUDE\10.0.10240.0\UCRT\ERRNO.H
C:\PROGRAM FILES (X86)\MICROSOFT VISUAL STUDIO 14.0\VC\INCLUDE\VCRUNTIME_STRING.H
C:\PROGRAM FILES (X86)\WINDOWS KITS\10\INCLUDE\10.0.10240.0\UCRT\CORECRT_WSTRING.H
C:\PROGRAM FILES (X86)\MICROSOFT VISUAL STUDIO 14.0\VC\INCLUDE\CWCHAR
C:\PROGRAM FILES (X86)\WINDOWS KITS\10\INCLUDE\10.0.10240.0\UCRT\WCHAR.H
C:\PROGRAM FILES (X86)\WINDOWS KITS\10\INCLUDE\10.0.10240.0\UCRT\CORECRT_WCONIO.H
C:\PROGRAM FILES (X86)\WINDOWS KITS\10\INCLUDE\10.0.10240.0\UCRT\CORECRT_WCTYPE.H
C:\PROGRAM FILES (X86)\WINDOWS KITS\10\INCLUDE\10.0.10240.0\UCRT\CORECRT_WDIRECT.H
C:\PROGRAM FILES (X86)\WINDOWS KITS\10\INCLUDE\10.0.10240.0\UCRT\CORECRT_WIO.H
C:\PROGRAM FILES (X86)\WINDOWS KITS\10\INCLUDE\10.0.10240.0\UCRT\CORECRT_SHARE.H
C:\PROGRAM FILES (X86)\WINDOWS KITS\10\INCLUDE\10.0.10240.0\UCRT\CORECRT_WPROCESS.H
C:\PROGRAM FILES (X86)\WINDOWS KITS\10\INCLUDE\10.0.10240.0\UCRT\CORECRT_WTIME.H
C:\PROGRAM FILES (X86)\WINDOWS KITS\10\INCLUDE\10.0.10240.0\UCRT\SYS\STAT.H
C:\PROGRAM FILES (X86)\WINDOWS KITS\10\INCLUDE\10.0.10240.0\UCRT\SYS\TYPES.H
C:\PROGRAM FILES (X86)\WINDOWS KITS\10\INCLUDE\10.0.10240.0\UCRT\CRTDBG.H
C:\PROGRAM FILES (X86)\MICROSOFT VISUAL STUDIO 14.0\VC\INCLUDE\VCRUNTIME_NEW_DEBUG.H
C:\PROGRAM FILES (X86)\MICROSOFT VISUAL STUDIO 14.0\VC\INCLUDE\VCRUNTIME_NEW.H
C:\QT\QT5.9.2\5.9.2\MSVC2017_64\INCLUDE\QTCORE\QCONFIG.H
C:\QT\QT5.9.2\5.9.2\MSVC2017_64\INCLUDE\QTCORE\QTCORE-CONFIG.H
C:\QT\QT5.9.2\5.9.2\MSVC2017_64\INCLUDE\QTCORE\QSYSTEMDETECTION.H
C:\QT\QT5.9.2\5.9.2\MSVC2017_64\INCLUDE\QTCORE\QPROCESSORDETECTION.H
C:\QT\QT5.9.2\5.9.2\MSVC2017_64\INCLUDE\QTCORE\QCOMPILERDETECTION.H
C:\PROGRAM FILES (X86)\MICROSOFT VISUAL STUDIO 14.0\VC\INCLUDE\ALGORITHM
C:\PROGRAM FILES (X86)\MICROSOFT VISUAL STUDIO 14.0\VC\INCLUDE\XMEMORY
C:\PROGRAM FILES (X86)\MICROSOFT VISUAL STUDIO 14.0\VC\INCLUDE\XMEMORY0
C:\PROGRAM FILES (X86)\MICROSOFT VISUAL STUDIO 14.0\VC\INCLUDE\CSTDINT
C:\PROGRAM FILES (X86)\MICROSOFT VISUAL STUDIO 14.0\VC\INCLUDE\STDINT.H
C:\PROGRAM FILES (X86)\MICROSOFT VISUAL STUDIO 14.0\VC\INCLUDE\LIMITS
C:\PROGRAM FILES (X86)\MICROSOFT VISUAL STUDIO 14.0\VC\INCLUDE\YMATH.H
C:\PROGRAM FILES (X86)\MICROSOFT VISUAL STUDIO 14.0\VC\INCLUDE\CFLOAT
C:\PROGRAM FILES (X86)\WINDOWS KITS\10\INCLUDE\10.0.10240.0\UCRT\FLOAT.H
C:\PROGRAM FILES (X86)\MICROSOFT VISUAL STUDIO 14.0\VC\INCLUDE\CLIMITS
C:\PROGRAM FILES (X86)\MICROSOFT VISUAL STUDIO 14.0\VC\INCLUDE\CMATH
C:\PROGRAM FILES (X86)\WINDOWS KITS\10\INCLUDE\10.0.10240.0\UCRT\MATH.H
C:\PROGRAM FILES (X86)\MICROSOFT VISUAL STUDIO 14.0\VC\INCLUDE\XTGMATH.H
C:\PROGRAM FILES (X86)\MICROSOFT VISUAL STUDIO 14.0\VC\INCLUDE\NEW
C:\PROGRAM FILES (X86)\MICROSOFT VISUAL STUDIO 14.0\VC\INCLUDE\EXCEPTION
C:\PROGRAM FILES (X86)\WINDOWS KITS\10\INCLUDE\10.0.10240.0\UCRT\MALLOC.H
C:\PROGRAM FILES (X86)\MICROSOFT VISUAL STUDIO 14.0\VC\INCLUDE\VCRUNTIME_EXCEPTION.H
C:\PROGRAM FILES (X86)\MICROSOFT VISUAL STUDIO 14.0\VC\INCLUDE\EH.H
C:\PROGRAM FILES (X86)\WINDOWS KITS\10\INCLUDE\10.0.10240.0\UCRT\CORECRT_TERMINATE.H
C:\PROGRAM FILES (X86)\MICROSOFT VISUAL STUDIO 14.0\VC\INCLUDE\XUTILITY
C:\PROGRAM FILES (X86)\MICROSOFT VISUAL STUDIO 14.0\VC\INCLUDE\XATOMIC0.H
C:\PROGRAM FILES (X86)\MICROSOFT VISUAL STUDIO 14.0\VC\INCLUDE\INTRIN.H
C:\PROGRAM FILES (X86)\MICROSOFT VISUAL STUDIO 14.0\VC\INCLUDE\SETJMP.H
C:\PROGRAM FILES (X86)\MICROSOFT VISUAL STUDIO 14.0\VC\INCLUDE\IMMINTRIN.H
C:\PROGRAM FILES (X86)\MICROSOFT VISUAL STUDIO 14.0\VC\INCLUDE\WMMINTRIN.H
C:\PROGRAM FILES (X86)\MICROSOFT VISUAL STUDIO 14.0\VC\INCLUDE\NMMINTRIN.H
C:\PROGRAM FILES (X86)\MICROSOFT VISUAL STUDIO 14.0\VC\INCLUDE\SMMINTRIN.H
C:\PROGRAM FILES (X86)\MICROSOFT VISUAL STUDIO 14.0\VC\INCLUDE\TMMINTRIN.H
C:\PROGRAM FILES (X86)\MICROSOFT VISUAL STUDIO 14.0\VC\INCLUDE\PMMINTRIN.H
C:\PROGRAM FILES (X86)\MICROSOFT VISUAL STUDIO 14.0\VC\INCLUDE\EMMINTRIN.H
C:\PROGRAM FILES (X86)\MICROSOFT VISUAL STUDIO 14.0\VC\INCLUDE\XMMINTRIN.H
C:\PROGRAM FILES (X86)\MICROSOFT VISUAL STUDIO 14.0\VC\INCLUDE\MMINTRIN.H
C:\PROGRAM FILES (X86)\MICROSOFT VISUAL STUDIO 14.0\VC\INCLUDE\AMMINTRIN.H
C:\QT\QT5.9.2\5.9.2\MSVC2017_64\INCLUDE\QTCORE\QTYPEINFO.H
C:\QT\QT5.9.2\5.9.2\MSVC2017_64\INCLUDE\QTCORE\QSYSINFO.H
C:\QT\QT5.9.2\5.9.2\MSVC2017_64\INCLUDE\QTCORE\QLOGGING.H
C:\QT\QT5.9.2\5.9.2\MSVC2017_64\INCLUDE\QTCORE\QFLAGS.H
C:\QT\QT5.9.2\5.9.2\MSVC2017_64\INCLUDE\QTCORE\QATOMIC.H
C:\QT\QT5.9.2\5.9.2\MSVC2017_64\INCLUDE\QTCORE\QBASICATOMIC.H
C:\QT\QT5.9.2\5.9.2\MSVC2017_64\INCLUDE\QTCORE\QATOMIC_MSVC.H
C:\QT\QT5.9.2\5.9.2\MSVC2017_64\INCLUDE\QTCORE\QGENERICATOMIC.H
C:\QT\QT5.9.2\5.9.2\MSVC2017_64\INCLUDE\QTCORE\QGLOBALSTATIC.H
C:\QT\QT5.9.2\5.9.2\MSVC2017_64\INCLUDE\QTCORE\QNUMERIC.H
C:\QT\QT5.9.2\5.9.2\MSVC2017_64\INCLUDE\QTCORE\QVERSIONTAGGING.H
C:\QT\QT5.9.2\5.9.2\MSVC2017_64\INCLUDE\QTGUI\QTGUI-CONFIG.H
C:\QT\QT5.9.2\5.9.2\MSVC2017_64\INCLUDE\QTWIDGETS\QTWIDGETS-CONFIG.H
C:\QT\QT5.9.2\5.9.2\MSVC2017_64\INCLUDE\QTWIDGETS\QWIDGET.H
C:\QT\QT5.9.2\5.9.2\MSVC2017_64\INCLUDE\QTGUI\QWINDOWDEFS.H
C:\QT\QT5.9.2\5.9.2\MSVC2017_64\INCLUDE\QTCORE\QOBJECTDEFS.H
C:\QT\QT5.9.2\5.9.2\MSVC2017_64\INCLUDE\QTCORE\QNAMESPACE.H
C:\QT\QT5.9.2\5.9.2\MSVC2017_64\INCLUDE\QTCORE\QOBJECTDEFS_IMPL.H
C:\QT\QT5.9.2\5.9.2\MSVC2017_64\INCLUDE\QTGUI\QWINDOWDEFS_WIN.H
C:\QT\QT5.9.2\5.9.2\MSVC2017_64\INCLUDE\QTCORE\QOBJECT.H
C:\QT\QT5.9.2\5.9.2\MSVC2017_64\INCLUDE\QTCORE\QSTRING.H
C:\QT\QT5.9.2\5.9.2\MSVC2017_64\INCLUDE\QTCORE\QCHAR.H
C:\QT\QT5.9.2\5.9.2\MSVC2017_64\INCLUDE\QTCORE\QBYTEARRAY.H
C:\QT\QT5.9.2\5.9.2\MSVC2017_64\INCLUDE\QTCORE\QREFCOUNT.H
C:\QT\QT5.9.2\5.9.2\MSVC2017_64\INCLUDE\QTCORE\QARRAYDATA.H
C:\PROGRAM FILES (X86)\MICROSOFT VISUAL STUDIO 14.0\VC\INCLUDE\STDARG.H
C:\PROGRAM FILES (X86)\MICROSOFT VISUAL STUDIO 14.0\VC\INCLUDE\STRING
C:\PROGRAM FILES (X86)\MICROSOFT VISUAL STUDIO 14.0\VC\INCLUDE\ISTREAM
C:\PROGRAM FILES (X86)\MICROSOFT VISUAL STUDIO 14.0\VC\INCLUDE\OSTREAM
C:\PROGRAM FILES (X86)\MICROSOFT VISUAL STUDIO 14.0\VC\INCLUDE\IOS
C:\PROGRAM FILES (X86)\MICROSOFT VISUAL STUDIO 14.0\VC\INCLUDE\XLOCNUM
C:\PROGRAM FILES (X86)\MICROSOFT VISUAL STUDIO 14.0\VC\INCLUDE\STREAMBUF
C:\PROGRAM FILES (X86)\MICROSOFT VISUAL STUDIO 14.0\VC\INCLUDE\XIOSBASE
C:\PROGRAM FILES (X86)\MICROSOFT VISUAL STUDIO 14.0\VC\INCLUDE\XLOCALE
C:\PROGRAM FILES (X86)\MICROSOFT VISUAL STUDIO 14.0\VC\INCLUDE\STDEXCEPT
C:\PROGRAM FILES (X86)\MICROSOFT VISUAL STUDIO 14.0\VC\INCLUDE\XSTRING
C:\PROGRAM FILES (X86)\MICROSOFT VISUAL STUDIO 14.0\VC\INCLUDE\TYPEINFO
C:\PROGRAM FILES (X86)\MICROSOFT VISUAL STUDIO 14.0\VC\INCLUDE\VCRUNTIME_TYPEINFO.H
C:\PROGRAM FILES (X86)\MICROSOFT VISUAL STUDIO 14.0\VC\INCLUDE\XLOCINFO
C:\PROGRAM FILES (X86)\MICROSOFT VISUAL STUDIO 14.0\VC\INCLUDE\XLOCINFO.H
C:\PROGRAM FILES (X86)\WINDOWS KITS\10\INCLUDE\10.0.10240.0\UCRT\CTYPE.H
C:\PROGRAM FILES (X86)\WINDOWS KITS\10\INCLUDE\10.0.10240.0\UCRT\LOCALE.H
C:\PROGRAM FILES (X86)\MICROSOFT VISUAL STUDIO 14.0\VC\INCLUDE\XFACET
C:\PROGRAM FILES (X86)\MICROSOFT VISUAL STUDIO 14.0\VC\INCLUDE\SYSTEM_ERROR
C:\PROGRAM FILES (X86)\MICROSOFT VISUAL STUDIO 14.0\VC\INCLUDE\CERRNO
C:\PROGRAM FILES (X86)\WINDOWS KITS\10\INCLUDE\10.0.10240.0\UCRT\SHARE.H
C:\PROGRAM FILES (X86)\MICROSOFT VISUAL STUDIO 14.0\VC\INCLUDE\ITERATOR
C:\QT\QT5.9.2\5.9.2\MSVC2017_64\INCLUDE\QTCORE\QLIST.H
C:\QT\QT5.9.2\5.9.2\MSVC2017_64\INCLUDE\QTCORE\QALGORITHMS.H
C:\QT\QT5.9.2\5.9.2\MSVC2017_64\INCLUDE\QTCORE\QITERATOR.H
C:\QT\QT5.9.2\5.9.2\MSVC2017_64\INCLUDE\QTCORE\QHASHFUNCTIONS.H
C:\QT\QT5.9.2\5.9.2\MSVC2017_64\INCLUDE\QTCORE\QPAIR.H
C:\PROGRAM FILES (X86)\MICROSOFT VISUAL STUDIO 14.0\VC\INCLUDE\NUMERIC
C:\PROGRAM FILES (X86)\MICROSOFT VISUAL STUDIO 14.0\VC\INCLUDE\LIST
C:\QT\QT5.9.2\5.9.2\MSVC2017_64\INCLUDE\QTCORE\QBYTEARRAYLIST.H
C:\QT\QT5.9.2\5.9.2\MSVC2017_64\INCLUDE\QTCORE\QSTRINGLIST.H
C:\QT\QT5.9.2\5.9.2\MSVC2017_64\INCLUDE\QTCORE\QREGEXP.H
C:\QT\QT5.9.2\5.9.2\MSVC2017_64\INCLUDE\QTCORE\QSTRINGMATCHER.H
C:\QT\QT5.9.2\5.9.2\MSVC2017_64\INCLUDE\QTCORE\QSCOPEDPOINTER.H
C:\QT\QT5.9.2\5.9.2\MSVC2017_64\INCLUDE\QTCORE\QMETATYPE.H
C:\QT\QT5.9.2\5.9.2\MSVC2017_64\INCLUDE\QTCORE\QVARLENGTHARRAY.H
C:\QT\QT5.9.2\5.9.2\MSVC2017_64\INCLUDE\QTCORE\QCONTAINERFWD.H
C:\PROGRAM FILES (X86)\MICROSOFT VISUAL STUDIO 14.0\VC\INCLUDE\VECTOR
C:\PROGRAM FILES (X86)\MICROSOFT VISUAL STUDIO 14.0\VC\INCLUDE\MAP
C:\PROGRAM FILES (X86)\MICROSOFT VISUAL STUDIO 14.0\VC\INCLUDE\TUPLE
C:\PROGRAM FILES (X86)\MICROSOFT VISUAL STUDIO 14.0\VC\INCLUDE\XTREE
C:\QT\QT5.9.2\5.9.2\MSVC2017_64\INCLUDE\QTCORE\QOBJECT_IMPL.H
C:\QT\QT5.9.2\5.9.2\MSVC2017_64\INCLUDE\QTCORE\QMARGINS.H
C:\QT\QT5.9.2\5.9.2\MSVC2017_64\INCLUDE\QTGUI\QPAINTDEVICE.H
C:\QT\QT5.9.2\5.9.2\MSVC2017_64\INCLUDE\QTCORE\QRECT.H
C:\QT\QT5.9.2\5.9.2\MSVC2017_64\INCLUDE\QTCORE\QSIZE.H
C:\QT\QT5.9.2\5.9.2\MSVC2017_64\INCLUDE\QTCORE\QPOINT.H
C:\QT\QT5.9.2\5.9.2\MSVC2017_64\INCLUDE\QTGUI\QPALETTE.H
C:\QT\QT5.9.2\5.9.2\MSVC2017_64\INCLUDE\QTGUI\QCOLOR.H
C:\QT\QT5.9.2\5.9.2\MSVC2017_64\INCLUDE\QTGUI\QRGB.H
C:\QT\QT5.9.2\5.9.2\MSVC2017_64\INCLUDE\QTGUI\QRGBA64.H
C:\QT\QT5.9.2\5.9.2\MSVC2017_64\INCLUDE\QTGUI\QBRUSH.H
C:\QT\QT5.9.2\5.9.2\MSVC2017_64\INCLUDE\QTCORE\QVECTOR.H
C:\QT\QT5.9.2\5.9.2\MSVC2017_64\INCLUDE\QTGUI\QMATRIX.H
C:\QT\QT5.9.2\5.9.2\MSVC2017_64\INCLUDE\QTGUI\QPOLYGON.H
C:\QT\QT5.9.2\5.9.2\MSVC2017_64\INCLUDE\QTGUI\QREGION.H
C:\QT\QT5.9.2\5.9.2\MSVC2017_64\INCLUDE\QTCORE\QDATASTREAM.H
C:\QT\QT5.9.2\5.9.2\MSVC2017_64\INCLUDE\QTCORE\QIODEVICE.H
C:\QT\QT5.9.2\5.9.2\MSVC2017_64\INCLUDE\QTCORE\QLINE.H
C:\QT\QT5.9.2\5.9.2\MSVC2017_64\INCLUDE\QTGUI\QTRANSFORM.H
C:\QT\QT5.9.2\5.9.2\MSVC2017_64\INCLUDE\QTGUI\QPAINTERPATH.H
C:\QT\QT5.9.2\5.9.2\MSVC2017_64\INCLUDE\QTGUI\QIMAGE.H
C:\QT\QT5.9.2\5.9.2\MSVC2017_64\INCLUDE\QTGUI\QPIXELFORMAT.H
C:\QT\QT5.9.2\5.9.2\MSVC2017_64\INCLUDE\QTGUI\QPIXMAP.H
C:\QT\QT5.9.2\5.9.2\MSVC2017_64\INCLUDE\QTCORE\QSHAREDPOINTER.H
C:\QT\QT5.9.2\5.9.2\MSVC2017_64\INCLUDE\QTCORE\QSHAREDDATA.H
C:\QT\QT5.9.2\5.9.2\MSVC2017_64\INCLUDE\QTCORE\QHASH.H
C:\QT\QT5.9.2\5.9.2\MSVC2017_64\INCLUDE\QTCORE\QSHAREDPOINTER_IMPL.H
C:\QT\QT5.9.2\5.9.2\MSVC2017_64\INCLUDE\QTGUI\QFONT.H
C:\QT\QT5.9.2\5.9.2\MSVC2017_64\INCLUDE\QTGUI\QFONTMETRICS.H
C:\QT\QT5.9.2\5.9.2\MSVC2017_64\INCLUDE\QTGUI\QFONTINFO.H
C:\QT\QT5.9.2\5.9.2\MSVC2017_64\INCLUDE\QTWIDGETS\QSIZEPOLICY.H
C:\QT\QT5.9.2\5.9.2\MSVC2017_64\INCLUDE\QTGUI\QCURSOR.H
C:\QT\QT5.9.2\5.9.2\MSVC2017_64\INCLUDE\QTGUI\QKEYSEQUENCE.H
C:\QT\QT5.9.2\5.9.2\MSVC2017_64\INCLUDE\QTWIDGETS\QTABWIDGET.H
C:\QT\QT5.9.2\5.9.2\MSVC2017_64\INCLUDE\QTGUI\QICON.H
C:\USERS\OPATOVSKY\DOCUMENTS\VISUAL STUDIO 2015\PROJECTS\POLYDATA\POLYDATA\GENERATEDFILES\UI_POLYDATA.H
C:\QT\QT5.9.2\5.9.2\MSVC2017_64\INCLUDE\QTCORE\QVARIANT
C:\QT\QT5.9.2\5.9.2\MSVC2017_64\INCLUDE\QTCORE\QVARIANT.H
C:\QT\QT5.9.2\5.9.2\MSVC2017_64\INCLUDE\QTCORE\QMAP.H
C:\PROGRAM FILES (X86)\MICROSOFT VISUAL STUDIO 14.0\VC\INCLUDE\FUNCTIONAL
C:\PROGRAM FILES (X86)\MICROSOFT VISUAL STUDIO 14.0\VC\INCLUDE\XFUNCTIONAL
C:\QT\QT5.9.2\5.9.2\MSVC2017_64\INCLUDE\QTWIDGETS\QACTION
C:\QT\QT5.9.2\5.9.2\MSVC2017_64\INCLUDE\QTWIDGETS\QACTION.H
C:\QT\QT5.9.2\5.9.2\MSVC2017_64\INCLUDE\QTWIDGETS\QACTIONGROUP.H
C:\QT\QT5.9.2\5.9.2\MSVC2017_64\INCLUDE\QTWIDGETS\QAPPLICATION
C:\QT\QT5.9.2\5.9.2\MSVC2017_64\INCLUDE\QTWIDGETS\QAPPLICATION.H
C:\QT\QT5.9.2\5.9.2\MSVC2017_64\INCLUDE\QTCORE\QCOREAPPLICATION.H
C:\QT\QT5.9.2\5.9.2\MSVC2017_64\INCLUDE\QTCORE\QCOREEVENT.H
C:\QT\QT5.9.2\5.9.2\MSVC2017_64\INCLUDE\QTCORE\QEVENTLOOP.H
C:\QT\QT5.9.2\5.9.2\MSVC2017_64\INCLUDE\QTGUI\QGUIAPPLICATION.H
C:\QT\QT5.9.2\5.9.2\MSVC2017_64\INCLUDE\QTGUI\QINPUTMETHOD.H
C:\QT\QT5.9.2\5.9.2\MSVC2017_64\INCLUDE\QTCORE\QLOCALE.H
C:\QT\QT5.9.2\5.9.2\MSVC2017_64\INCLUDE\QTWIDGETS\QBUTTONGROUP
C:\QT\QT5.9.2\5.9.2\MSVC2017_64\INCLUDE\QTWIDGETS\QBUTTONGROUP.H
C:\QT\QT5.9.2\5.9.2\MSVC2017_64\INCLUDE\QTWIDGETS\QCOMBOBOX
C:\QT\QT5.9.2\5.9.2\MSVC2017_64\INCLUDE\QTWIDGETS\QCOMBOBOX.H
C:\QT\QT5.9.2\5.9.2\MSVC2017_64\INCLUDE\QTWIDGETS\QABSTRACTITEMDELEGATE.H
C:\QT\QT5.9.2\5.9.2\MSVC2017_64\INCLUDE\QTWIDGETS\QSTYLEOPTION.H
C:\QT\QT5.9.2\5.9.2\MSVC2017_64\INCLUDE\QTWIDGETS\QABSTRACTSPINBOX.H
C:\QT\QT5.9.2\5.9.2\MSVC2017_64\INCLUDE\QTGUI\QVALIDATOR.H
C:\QT\QT5.9.2\5.9.2\MSVC2017_64\INCLUDE\QTCORE\QREGULAREXPRESSION.H
C:\QT\QT5.9.2\5.9.2\MSVC2017_64\INCLUDE\QTWIDGETS\QSLIDER.H
C:\QT\QT5.9.2\5.9.2\MSVC2017_64\INCLUDE\QTWIDGETS\QABSTRACTSLIDER.H
C:\QT\QT5.9.2\5.9.2\MSVC2017_64\INCLUDE\QTWIDGETS\QSTYLE.H
C:\QT\QT5.9.2\5.9.2\MSVC2017_64\INCLUDE\QTWIDGETS\QTABBAR.H
C:\QT\QT5.9.2\5.9.2\MSVC2017_64\INCLUDE\QTWIDGETS\QRUBBERBAND.H
C:\QT\QT5.9.2\5.9.2\MSVC2017_64\INCLUDE\QTWIDGETS\QFRAME.H
C:\QT\QT5.9.2\5.9.2\MSVC2017_64\INCLUDE\QTCORE\QABSTRACTITEMMODEL.H
C:\QT\QT5.9.2\5.9.2\MSVC2017_64\INCLUDE\QTWIDGETS\QDOUBLESPINBOX
C:\QT\QT5.9.2\5.9.2\MSVC2017_64\INCLUDE\QTWIDGETS\QSPINBOX.H
C:\QT\QT5.9.2\5.9.2\MSVC2017_64\INCLUDE\QTWIDGETS\QHEADERVIEW
C:\QT\QT5.9.2\5.9.2\MSVC2017_64\INCLUDE\QTWIDGETS\QHEADERVIEW.H
C:\QT\QT5.9.2\5.9.2\MSVC2017_64\INCLUDE\QTWIDGETS\QABSTRACTITEMVIEW.H
C:\QT\QT5.9.2\5.9.2\MSVC2017_64\INCLUDE\QTWIDGETS\QABSTRACTSCROLLAREA.H
C:\QT\QT5.9.2\5.9.2\MSVC2017_64\INCLUDE\QTCORE\QITEMSELECTIONMODEL.H
C:\QT\QT5.9.2\5.9.2\MSVC2017_64\INCLUDE\QTCORE\QSET.H
C:\QT\QT5.9.2\5.9.2\MSVC2017_64\INCLUDE\QTWIDGETS\QLABEL
C:\QT\QT5.9.2\5.9.2\MSVC2017_64\INCLUDE\QTWIDGETS\QLABEL.H
C:\QT\QT5.9.2\5.9.2\MSVC2017_64\INCLUDE\QTWIDGETS\QMENU
C:\QT\QT5.9.2\5.9.2\MSVC2017_64\INCLUDE\QTWIDGETS\QMENU.H
C:\QT\QT5.9.2\5.9.2\MSVC2017_64\INCLUDE\QTWIDGETS\QMENUBAR
C:\QT\QT5.9.2\5.9.2\MSVC2017_64\INCLUDE\QTWIDGETS\QMENUBAR.H
C:\QT\QT5.9.2\5.9.2\MSVC2017_64\INCLUDE\QTWIDGETS\QPUSHBUTTON
C:\QT\QT5.9.2\5.9.2\MSVC2017_64\INCLUDE\QTWIDGETS\QPUSHBUTTON.H
C:\QT\QT5.9.2\5.9.2\MSVC2017_64\INCLUDE\QTWIDGETS\QABSTRACTBUTTON.H
C:\QT\QT5.9.2\5.9.2\MSVC2017_64\INCLUDE\QTWIDGETS\QSPINBOX
C:\QT\QT5.9.2\5.9.2\MSVC2017_64\INCLUDE\QTWIDGETS\QSTATUSBAR
C:\QT\QT5.9.2\5.9.2\MSVC2017_64\INCLUDE\QTWIDGETS\QSTATUSBAR.H
C:\QT\QT5.9.2\5.9.2\MSVC2017_64\INCLUDE\QTWIDGETS\QTABLEWIDGET
C:\QT\QT5.9.2\5.9.2\MSVC2017_64\INCLUDE\QTWIDGETS\QTABLEWIDGET.H
C:\QT\QT5.9.2\5.9.2\MSVC2017_64\INCLUDE\QTWIDGETS\QTABLEVIEW.H
C:\QT\QT5.9.2\5.9.2\MSVC2017_64\INCLUDE\QTWIDGETS\QTOOLBAR
C:\QT\QT5.9.2\5.9.2\MSVC2017_64\INCLUDE\QTWIDGETS\QTOOLBAR.H
C:\QT\QT5.9.2\5.9.2\MSVC2017_64\INCLUDE\QTWIDGETS\QWIDGET
C:\QT\QT5.9.2\5.9.2\MSVC2017_64\INCLUDE\QTCORE\QDEBUG
C:\QT\QT5.9.2\5.9.2\MSVC2017_64\INCLUDE\QTCORE\QDEBUG.H
C:\QT\QT5.9.2\5.9.2\MSVC2017_64\INCLUDE\QTCORE\QTEXTSTREAM.H
C:\QT\QT5.9.2\5.9.2\MSVC2017_64\INCLUDE\QTCORE\QCONTIGUOUSCACHE.H
C:\QT\QT5.9.2\5.9.2\MSVC2017_64\INCLUDE\QTCORE\QFILE
C:\QT\QT5.9.2\5.9.2\MSVC2017_64\INCLUDE\QTCORE\QFILE.H
C:\QT\QT5.9.2\5.9.2\MSVC2017_64\INCLUDE\QTCORE\QFILEDEVICE.H
C:\QT\QT5.9.2\5.9.2\MSVC2017_64\INCLUDE\QTWIDGETS\QFILEDIALOG
C:\QT\QT5.9.2\5.9.2\MSVC2017_64\INCLUDE\QTWIDGETS\QFILEDIALOG.H
C:\QT\QT5.9.2\5.9.2\MSVC2017_64\INCLUDE\QTCORE\QDIR.H
C:\QT\QT5.9.2\5.9.2\MSVC2017_64\INCLUDE\QTCORE\QFILEINFO.H
C:\QT\QT5.9.2\5.9.2\MSVC2017_64\INCLUDE\QTCORE\QURL.H
C:\QT\QT5.9.2\5.9.2\MSVC2017_64\INCLUDE\QTWIDGETS\QDIALOG.H
C:\QT\QT5.9.2\5.9.2\MSVC2017_64\INCLUDE\QTWIDGETS\QMESSAGEBOX
C:\QT\QT5.9.2\5.9.2\MSVC2017_64\INCLUDE\QTWIDGETS\QMESSAGEBOX.H
